{"failedCount":1,"prefixedPath":"src\/test\/resources\/featureCategories\/GetSeveralBrowseCategories.feature","packageQualifiedName":"src.test.resources.featureCategories.GetSeveralBrowseCategories","loopIndex":-1,"relativePath":"src\/test\/resources\/featureCategories\/GetSeveralBrowseCategories.feature","scenarioResults":[{"sectionIndex":0,"stepResults":[{"result":{"nanos":1468500400,"millis":1468.5004,"status":"passed"},"step":{"background":true,"line":4,"prefix":"And","index":0,"text":"def authorization_access = call read('classpath:Authorization\/BearerToken.feature')"},"callResults":[{"failedCount":0,"prefixedPath":"classpath:Authorization\/BearerToken.feature","packageQualifiedName":"Authorization.BearerToken","loopIndex":-1,"relativePath":"Authorization\/BearerToken.feature","scenarioResults":[{"sectionIndex":0,"stepResults":[{"result":{"nanos":926400,"millis":0.9264,"status":"passed"},"step":{"line":5,"prefix":"Given","index":0,"text":"url \"https:\/\/accounts.spotify.com\/api\/token\""}},{"result":{"nanos":7852300,"millis":7.8523,"status":"passed"},"step":{"line":6,"prefix":"And","index":1,"text":"def Base64 = Java.type('Utils.Base64Encode')"}},{"result":{"nanos":1697600,"millis":1.6976,"status":"passed"},"step":{"line":7,"prefix":"And","index":2,"text":"def auth_string = client_authorization"}},{"result":{"nanos":9481200,"millis":9.4812,"status":"passed"},"step":{"line":8,"prefix":"And","index":3,"text":"def encoded_string = Base64.encode(auth_string)"}},{"result":{"nanos":14744600,"millis":14.7446,"status":"passed"},"step":{"line":9,"prefix":"And","index":4,"text":"header Authorization = \"Basic \" + encoded_string"}},{"result":{"nanos":134111800,"millis":134.1118,"status":"passed"},"step":{"line":10,"prefix":"And","index":5,"text":"form field grant_type = \"client_credentials\""}},{"result":{"nanos":1182604000,"millis":1182.604,"status":"passed"},"step":{"line":11,"prefix":"When","index":6,"text":"method POST"},"stepLog":"19:13:04.768 request:\n1 > POST https:\/\/accounts.spotify.com\/api\/token\n1 > Authorization: Basic MzQ3NTdhOWZkOTIzNDM2OWIwOThkZGVkZTViMDQwMmM6YWViZDMyMDkyOTVlNGQxNThiN2I2M2M1ODljNGU5Mjc=\n1 > Content-Type: application\/x-www-form-urlencoded\n1 > Content-Length: 29\n1 > Host: accounts.spotify.com\n1 > Connection: Keep-Alive\n1 > User-Agent: Apache-HttpClient\/4.5.14 (Java\/11.0.14)\n1 > Accept-Encoding: gzip,deflate\ngrant_type=client_credentials\n\n19:13:05.311 response time in milliseconds: 535\n1 < 200\n1 < date: Sat, 08 Apr 2023 19:11:27 GMT\n1 < content-type: application\/json\n1 < set-cookie: __Host-device_id=AQAwEprJfiCwp9yrZkSJRJx_V1owAeIoWlltGt6jwFaK-ggkwSY0IFeU2Q-WIHJGm9okNZ-k_3q7vYAg5yF9n-SH7TWZLfnYF8Y;Version=1;Path=\/;Max-Age=2147483647;Secure;HttpOnly;SameSite=Lax\n1 < set-cookie: sp_tr=false;Version=1;Domain=accounts.spotify.com;Path=\/;Secure;SameSite=Lax\n1 < sp-trace-id: d958ce81fbf7e14f\n1 < x-envoy-upstream-service-time: 9\n1 < server: envoy\n1 < strict-transport-security: max-age=31536000\n1 < x-content-type-options: nosniff\n1 < vary: Accept-Encoding\n1 < Via: HTTP\/2 edgeproxy, 1.1 google\n1 < Alt-Svc: h3=\":443\"; ma=2592000,h3-29=\":443\"; ma=2592000\n1 < Transfer-Encoding: chunked\n1 < Set-Cookie: __Host-device_id=AQAwEprJfiCwp9yrZkSJRJx_V1owAeIoWlltGt6jwFaK-ggkwSY0IFeU2Q-WIHJGm9okNZ-k_3q7vYAg5yF9n-SH7TWZLfnYF8Y;Version=1;Path=\/;Max-Age=2147483647;Secure;HttpOnly;SameSite=Lax\n1 < Set-Cookie: sp_tr=false;Version=1;Domain=accounts.spotify.com;Path=\/;Secure;SameSite=Lax\n{\"access_token\":\"BQDTnyMXlK2xseT6u6z2DW4lXP3XzAhyQA8mKYvk_0usIOrYaFmw9F1vAkUFW3hBZLJCH5io49bGLJGcDVHuiPI1CiAWcili0AIYJNeSVXy6xHwXj_97\",\"token_type\":\"Bearer\",\"expires_in\":3600}\n\n"},{"result":{"nanos":74300,"millis":0.0743,"status":"passed"},"step":{"line":12,"prefix":"Then","index":7,"text":"status 200"}},{"result":{"nanos":6605800,"millis":6.6058,"status":"passed"},"step":{"line":13,"prefix":"And","index":8,"text":"def bearer_token = response.access_token"}}],"executorName":"main","line":3,"name":"get authorization","description":"","durationMillis":1358.098,"startTime":1680981183957,"failed":false,"refId":"[1:3]","endTime":1680981185325,"exampleIndex":-1}],"callDepth":1,"name":"Get the bearer token","description":"","resultDate":"2023-04-08 07:13:06 PM","durationMillis":1358.098,"passedCount":1}]},{"result":{"nanos":1332600,"millis":1.3326,"status":"passed"},"step":{"line":8,"prefix":"Given","index":0,"text":"url \"https:\/\/api.spotify.com\/v1\/browse\/categories\""}},{"result":{"nanos":1034300,"millis":1.0343,"status":"passed"},"step":{"line":9,"prefix":"And","index":1,"text":"header Authorization = 'Bearer ' + authorization_access .bearer_token"}},{"result":{"nanos":17233900,"millis":17.2339,"status":"passed"},"step":{"line":10,"prefix":"And","index":2,"text":"params { country = \"SE\" , locale : \"sv_SE\" , limit : 10 , offset : 5  }"}},{"result":{"nanos":340383400,"millis":340.3834,"status":"passed"},"step":{"line":11,"prefix":"When","index":3,"text":"method GET"},"stepLog":"19:13:05.350 request:\n1 > GET https:\/\/api.spotify.com\/v1\/browse\/categories?country+%3D+%22SE%22+%2C+locale=sv_SE&offset=5&limit=10\n1 > Authorization: Bearer BQDTnyMXlK2xseT6u6z2DW4lXP3XzAhyQA8mKYvk_0usIOrYaFmw9F1vAkUFW3hBZLJCH5io49bGLJGcDVHuiPI1CiAWcili0AIYJNeSVXy6xHwXj_97\n1 > Host: api.spotify.com\n1 > Connection: Keep-Alive\n1 > User-Agent: Apache-HttpClient\/4.5.14 (Java\/11.0.14)\n1 > Accept-Encoding: gzip,deflate\n\n\n19:13:05.685 response time in milliseconds: 333\n1 < 200\n1 < content-type: application\/json; charset=utf-8\n1 < cache-control: public, max-age=600\n1 < x-robots-tag: noindex, nofollow\n1 < access-control-allow-origin: *\n1 < access-control-allow-headers: Accept, App-Platform, Authorization, Content-Type, Origin, Retry-After, Spotify-App-Version, X-Cloud-Trace-Context, client-token, content-access-token\n1 < access-control-allow-methods: GET, POST, OPTIONS, PUT, DELETE, PATCH\n1 < access-control-allow-credentials: true\n1 < access-control-max-age: 604800\n1 < strict-transport-security: max-age=31536000\n1 < x-content-type-options: nosniff\n1 < date: Sat, 08 Apr 2023 19:11:27 GMT\n1 < server: envoy\n1 < Via: HTTP\/2 edgeproxy, 1.1 google\n1 < Alt-Svc: h3=\":443\"; ma=2592000,h3-29=\":443\"; ma=2592000\n1 < Transfer-Encoding: chunked\n{\n  \"categories\" : {\n    \"href\" : \"https:\/\/api.spotify.com\/v1\/browse\/categories?country=MA&offset=5&limit=10\",\n    \"items\" : [ {\n      \"href\" : \"https:\/\/api.spotify.com\/v1\/browse\/categories\/0JQ5DAqbMKFNQ0fGp4byGU\",\n      \"icons\" : [ {\n        \"height\" : null,\n        \"url\" : \"https:\/\/t.scdn.co\/images\/b505b01bbe0e490cbe43b07f16212892.jpeg\",\n        \"width\" : null\n      } ],\n      \"id\" : \"0JQ5DAqbMKFNQ0fGp4byGU\",\n      \"name\" : \"Afro\"\n    }, {\n      \"href\" : \"https:\/\/api.spotify.com\/v1\/browse\/categories\/0JQ5DAqbMKFzHmL4tf05da\",\n      \"icons\" : [ {\n        \"height\" : 274,\n        \"url\" : \"https:\/\/t.scdn.co\/media\/original\/mood-274x274_976986a31ac8c49794cbdc7246fd5ad7_274x274.jpg\",\n        \"width\" : 274\n      } ],\n      \"id\" : \"0JQ5DAqbMKFzHmL4tf05da\",\n      \"name\" : \"Mood\"\n    }, {\n      \"href\" : \"https:\/\/api.spotify.com\/v1\/browse\/categories\/0JQ5DAqbMKFHaib8N0cwey\",\n      \"icons\" : [ {\n        \"height\" : null,\n        \"url\" : \"https:\/\/t.scdn.co\/images\/3a65e06ed84743b29df8c5d9102dd827.jpeg\",\n        \"width\" : null\n      } ],\n      \"id\" : \"0JQ5DAqbMKFHaib8N0cwey\",\n      \"name\" : \"Khaleeji\"\n    }, {\n      \"href\" : \"https:\/\/api.spotify.com\/v1\/browse\/categories\/0JQ5DAqbMKFLVaM30PMBm4\",\n      \"icons\" : [ {\n        \"height\" : null,\n        \"url\" : \"https:\/\/t.scdn.co\/images\/8e508d7eb5b843a89c368c9507ecc429.jpeg\",\n        \"width\" : null\n      } ],\n      \"id\" : \"0JQ5DAqbMKFLVaM30PMBm4\",\n      \"name\" : \"Summer\"\n    }, {\n      \"href\" : \"https:\/\/api.spotify.com\/v1\/browse\/categories\/0JQ5DAqbMKFxXaXKP7zcDp\",\n      \"icons\" : [ {\n        \"height\" : null,\n        \"url\" : \"https:\/\/t.scdn.co\/images\/26a60378-a374-4cd7-b894-28efa5e154cb.jpg\",\n        \"width\" : null\n      } ],\n      \"id\" : \"0JQ5DAqbMKFxXaXKP7zcDp\",\n      \"name\" : \"Latin\"\n    }, {\n      \"href\" : \"https:\/\/api.spotify.com\/v1\/browse\/categories\/0JQ5DAqbMKFGvOw3O4nLAf\",\n      \"icons\" : [ {\n        \"height\" : null,\n        \"url\" : \"https:\/\/t.scdn.co\/images\/2078afd91e4d431eb19efc5bee5ab131.jpeg\",\n        \"width\" : null\n      } ],\n      \"id\" : \"0JQ5DAqbMKFGvOw3O4nLAf\",\n      \"name\" : \"K-Pop\"\n    }, {\n      \"href\" : \"https:\/\/api.spotify.com\/v1\/browse\/categories\/0JQ5DAqbMKFObNLOHydSW8\",\n      \"icons\" : [ {\n        \"height\" : null,\n        \"url\" : \"https:\/\/t.scdn.co\/images\/495fadcefe234607b14b2db3381f3f5d.jpeg\",\n        \"width\" : null\n      } ],\n      \"id\" : \"0JQ5DAqbMKFObNLOHydSW8\",\n      \"name\" : \"Caribbean\"\n    }, {\n      \"href\" : \"https:\/\/api.spotify.com\/v1\/browse\/categories\/0JQ5DAqbMKFCfObibaOZbv\",\n      \"icons\" : [ {\n        \"height\" : null,\n        \"url\" : \"https:\/\/t.scdn.co\/images\/0d39395309ba47838ef12ce987f19d16.jpeg\",\n        \"width\" : null\n      } ],\n      \"id\" : \"0JQ5DAqbMKFCfObibaOZbv\",\n      \"name\" : \"Gaming\"\n    }, {\n      \"href\" : \"https:\/\/api.spotify.com\/v1\/browse\/categories\/0JQ5DAqbMKFRKBHIxJ5hMm\",\n      \"icons\" : [ {\n        \"height\" : null,\n        \"url\" : \"https:\/\/t.scdn.co\/images\/b4182906bf244b4994805084c057e9ee.jpeg\",\n        \"width\" : null\n      } ],\n      \"id\" : \"0JQ5DAqbMKFRKBHIxJ5hMm\",\n      \"name\" : \"Tastemakers\"\n    }, {\n      \"href\" : \"https:\/\/api.spotify.com\/v1\/browse\/categories\/0JQ5DAqbMKFLb2EqgLtpjC\",\n      \"icons\" : [ {\n        \"height\" : null,\n        \"url\" : \"https:\/\/t.scdn.co\/images\/3710b68657574bc79df14bd74629e5ac\",\n        \"width\" : null\n      } ],\n      \"id\" : \"0JQ5DAqbMKFLb2EqgLtpjC\",\n      \"name\" : \"Wellness\"\n    } ],\n    \"limit\" : 10,\n    \"next\" : \"https:\/\/api.spotify.com\/v1\/browse\/categories?country=MA&offset=15&limit=10\",\n    \"offset\" : 5,\n    \"previous\" : \"https:\/\/api.spotify.com\/v1\/browse\/categories?country=MA&offset=0&limit=10\",\n    \"total\" : 43\n  }\n}\n\n"},{"result":{"nanos":21500,"millis":0.0215,"status":"passed"},"step":{"line":12,"prefix":"Then","index":4,"text":"status 200"}},{"result":{"nanos":21322900,"millis":21.3229,"status":"passed"},"step":{"line":13,"prefix":"And","index":5,"text":"print response"},"stepLog":"19:13:05.710 [print] {\n  \"categories\": {\n    \"href\": \"https:\/\/api.spotify.com\/v1\/browse\/categories?country=MA&offset=5&limit=10\",\n    \"items\": [\n      {\n        \"href\": \"https:\/\/api.spotify.com\/v1\/browse\/categories\/0JQ5DAqbMKFNQ0fGp4byGU\",\n        \"icons\": [\n          {\n            \"height\": null,\n            \"url\": \"https:\/\/t.scdn.co\/images\/b505b01bbe0e490cbe43b07f16212892.jpeg\",\n            \"width\": null\n          }\n        ],\n        \"id\": \"0JQ5DAqbMKFNQ0fGp4byGU\",\n        \"name\": \"Afro\"\n      },\n      {\n        \"href\": \"https:\/\/api.spotify.com\/v1\/browse\/categories\/0JQ5DAqbMKFzHmL4tf05da\",\n        \"icons\": [\n          {\n            \"height\": 274,\n            \"url\": \"https:\/\/t.scdn.co\/media\/original\/mood-274x274_976986a31ac8c49794cbdc7246fd5ad7_274x274.jpg\",\n            \"width\": 274\n          }\n        ],\n        \"id\": \"0JQ5DAqbMKFzHmL4tf05da\",\n        \"name\": \"Mood\"\n      },\n      {\n        \"href\": \"https:\/\/api.spotify.com\/v1\/browse\/categories\/0JQ5DAqbMKFHaib8N0cwey\",\n        \"icons\": [\n          {\n            \"height\": null,\n            \"url\": \"https:\/\/t.scdn.co\/images\/3a65e06ed84743b29df8c5d9102dd827.jpeg\",\n            \"width\": null\n          }\n        ],\n        \"id\": \"0JQ5DAqbMKFHaib8N0cwey\",\n        \"name\": \"Khaleeji\"\n      },\n      {\n        \"href\": \"https:\/\/api.spotify.com\/v1\/browse\/categories\/0JQ5DAqbMKFLVaM30PMBm4\",\n        \"icons\": [\n          {\n            \"height\": null,\n            \"url\": \"https:\/\/t.scdn.co\/images\/8e508d7eb5b843a89c368c9507ecc429.jpeg\",\n            \"width\": null\n          }\n        ],\n        \"id\": \"0JQ5DAqbMKFLVaM30PMBm4\",\n        \"name\": \"Summer\"\n      },\n      {\n        \"href\": \"https:\/\/api.spotify.com\/v1\/browse\/categories\/0JQ5DAqbMKFxXaXKP7zcDp\",\n        \"icons\": [\n          {\n            \"height\": null,\n            \"url\": \"https:\/\/t.scdn.co\/images\/26a60378-a374-4cd7-b894-28efa5e154cb.jpg\",\n            \"width\": null\n          }\n        ],\n        \"id\": \"0JQ5DAqbMKFxXaXKP7zcDp\",\n        \"name\": \"Latin\"\n      },\n      {\n        \"href\": \"https:\/\/api.spotify.com\/v1\/browse\/categories\/0JQ5DAqbMKFGvOw3O4nLAf\",\n        \"icons\": [\n          {\n            \"height\": null,\n            \"url\": \"https:\/\/t.scdn.co\/images\/2078afd91e4d431eb19efc5bee5ab131.jpeg\",\n            \"width\": null\n          }\n        ],\n        \"id\": \"0JQ5DAqbMKFGvOw3O4nLAf\",\n        \"name\": \"K-Pop\"\n      },\n      {\n        \"href\": \"https:\/\/api.spotify.com\/v1\/browse\/categories\/0JQ5DAqbMKFObNLOHydSW8\",\n        \"icons\": [\n          {\n            \"height\": null,\n            \"url\": \"https:\/\/t.scdn.co\/images\/495fadcefe234607b14b2db3381f3f5d.jpeg\",\n            \"width\": null\n          }\n        ],\n        \"id\": \"0JQ5DAqbMKFObNLOHydSW8\",\n        \"name\": \"Caribbean\"\n      },\n      {\n        \"href\": \"https:\/\/api.spotify.com\/v1\/browse\/categories\/0JQ5DAqbMKFCfObibaOZbv\",\n        \"icons\": [\n          {\n            \"height\": null,\n            \"url\": \"https:\/\/t.scdn.co\/images\/0d39395309ba47838ef12ce987f19d16.jpeg\",\n            \"width\": null\n          }\n        ],\n        \"id\": \"0JQ5DAqbMKFCfObibaOZbv\",\n        \"name\": \"Gaming\"\n      },\n      {\n        \"href\": \"https:\/\/api.spotify.com\/v1\/browse\/categories\/0JQ5DAqbMKFRKBHIxJ5hMm\",\n        \"icons\": [\n          {\n            \"height\": null,\n            \"url\": \"https:\/\/t.scdn.co\/images\/b4182906bf244b4994805084c057e9ee.jpeg\",\n            \"width\": null\n          }\n        ],\n        \"id\": \"0JQ5DAqbMKFRKBHIxJ5hMm\",\n        \"name\": \"Tastemakers\"\n      },\n      {\n        \"href\": \"https:\/\/api.spotify.com\/v1\/browse\/categories\/0JQ5DAqbMKFLb2EqgLtpjC\",\n        \"icons\": [\n          {\n            \"height\": null,\n            \"url\": \"https:\/\/t.scdn.co\/images\/3710b68657574bc79df14bd74629e5ac\",\n            \"width\": null\n          }\n        ],\n        \"id\": \"0JQ5DAqbMKFLb2EqgLtpjC\",\n        \"name\": \"Wellness\"\n      }\n    ],\n    \"limit\": 10,\n    \"next\": \"https:\/\/api.spotify.com\/v1\/browse\/categories?country=MA&offset=15&limit=10\",\n    \"offset\": 5,\n    \"previous\": \"https:\/\/api.spotify.com\/v1\/browse\/categories?country=MA&offset=0&limit=10\",\n    \"total\": 43\n  }\n}\n \n"}],"executorName":"main","line":6,"name":"Get Several Browse Categories","description":"","durationMillis":1849.829,"startTime":1680981183659,"failed":false,"refId":"[1:6]","endTime":1680981185710,"exampleIndex":-1},{"sectionIndex":1,"stepResults":[{"result":{"nanos":381885200,"millis":381.8852,"status":"passed"},"step":{"background":true,"line":4,"prefix":"And","index":0,"text":"def authorization_access = call read('classpath:Authorization\/BearerToken.feature')"},"callResults":[{"failedCount":0,"prefixedPath":"classpath:Authorization\/BearerToken.feature","packageQualifiedName":"Authorization.BearerToken","loopIndex":-1,"relativePath":"Authorization\/BearerToken.feature","scenarioResults":[{"sectionIndex":0,"stepResults":[{"result":{"nanos":325300,"millis":0.3253,"status":"passed"},"step":{"line":5,"prefix":"Given","index":0,"text":"url \"https:\/\/accounts.spotify.com\/api\/token\""}},{"result":{"nanos":532000,"millis":0.532,"status":"passed"},"step":{"line":6,"prefix":"And","index":1,"text":"def Base64 = Java.type('Utils.Base64Encode')"}},{"result":{"nanos":290400,"millis":0.2904,"status":"passed"},"step":{"line":7,"prefix":"And","index":2,"text":"def auth_string = client_authorization"}},{"result":{"nanos":467300,"millis":0.4673,"status":"passed"},"step":{"line":8,"prefix":"And","index":3,"text":"def encoded_string = Base64.encode(auth_string)"}},{"result":{"nanos":389100,"millis":0.3891,"status":"passed"},"step":{"line":9,"prefix":"And","index":4,"text":"header Authorization = \"Basic \" + encoded_string"}},{"result":{"nanos":475300,"millis":0.4753,"status":"passed"},"step":{"line":10,"prefix":"And","index":5,"text":"form field grant_type = \"client_credentials\""}},{"result":{"nanos":364950100,"millis":364.9501,"status":"passed"},"step":{"line":11,"prefix":"When","index":6,"text":"method POST"},"stepLog":"19:13:05.738 request:\n1 > POST https:\/\/accounts.spotify.com\/api\/token\n1 > Authorization: Basic MzQ3NTdhOWZkOTIzNDM2OWIwOThkZGVkZTViMDQwMmM6YWViZDMyMDkyOTVlNGQxNThiN2I2M2M1ODljNGU5Mjc=\n1 > Content-Type: application\/x-www-form-urlencoded\n1 > Content-Length: 29\n1 > Host: accounts.spotify.com\n1 > Connection: Keep-Alive\n1 > User-Agent: Apache-HttpClient\/4.5.14 (Java\/11.0.14)\n1 > Accept-Encoding: gzip,deflate\ngrant_type=client_credentials\n\n19:13:06.100 response time in milliseconds: 359\n1 < 200\n1 < date: Sat, 08 Apr 2023 19:11:28 GMT\n1 < content-type: application\/json\n1 < set-cookie: __Host-device_id=AQCuynxaTAyTyDTLZ2RNm0JYZ3xqY0QIfRBBj9QTWYBSyzAX_pu8JmoKSbP-JQzMa7QJkVg-talykg7de_n87wtHLmNLwBvF5AA;Version=1;Path=\/;Max-Age=2147483647;Secure;HttpOnly;SameSite=Lax\n1 < set-cookie: sp_tr=false;Version=1;Domain=accounts.spotify.com;Path=\/;Secure;SameSite=Lax\n1 < sp-trace-id: 67391cfeb4e932c5\n1 < x-envoy-upstream-service-time: 11\n1 < server: envoy\n1 < strict-transport-security: max-age=31536000\n1 < x-content-type-options: nosniff\n1 < vary: Accept-Encoding\n1 < Via: HTTP\/2 edgeproxy, 1.1 google\n1 < Alt-Svc: h3=\":443\"; ma=2592000,h3-29=\":443\"; ma=2592000\n1 < Transfer-Encoding: chunked\n1 < Set-Cookie: __Host-device_id=AQCuynxaTAyTyDTLZ2RNm0JYZ3xqY0QIfRBBj9QTWYBSyzAX_pu8JmoKSbP-JQzMa7QJkVg-talykg7de_n87wtHLmNLwBvF5AA;Version=1;Path=\/;Max-Age=2147483647;Secure;HttpOnly;SameSite=Lax\n1 < Set-Cookie: sp_tr=false;Version=1;Domain=accounts.spotify.com;Path=\/;Secure;SameSite=Lax\n{\"access_token\":\"BQCmtnx0w-qq8bJ2RusNOjui-D7Hwn0WxnJ7j_ZTj7lmDnbg0F59I0M1j3kW8MuDO1fwYnA4xvDTsP3FMS-mM3eecFms4B9h85sLDoOnqQxcJsH0Ecam\",\"token_type\":\"Bearer\",\"expires_in\":3600}\n\n"},{"result":{"nanos":14700,"millis":0.0147,"status":"passed"},"step":{"line":12,"prefix":"Then","index":7,"text":"status 200"}},{"result":{"nanos":582200,"millis":0.5822,"status":"passed"},"step":{"line":13,"prefix":"And","index":8,"text":"def bearer_token = response.access_token"}}],"executorName":"main","line":3,"name":"get authorization","description":"","durationMillis":368.0264,"startTime":1680981185733,"failed":false,"refId":"[1:3]","endTime":1680981186102,"exampleIndex":-1}],"callDepth":1,"name":"Get the bearer token","description":"","resultDate":"2023-04-08 07:13:06 PM","durationMillis":368.0264,"passedCount":1}]},{"result":{"nanos":784000,"millis":0.784,"status":"passed"},"step":{"line":16,"prefix":"Given","index":0,"text":"url \"https:\/\/api.spotify.com\/v1\/browse\/Scategories\""}},{"result":{"nanos":550700,"millis":0.5507,"status":"passed"},"step":{"line":17,"prefix":"And","index":1,"text":"header Authorization = 'Bearer ' + authorization_access .bearer_token"}},{"result":{"nanos":361800,"millis":0.3618,"status":"passed"},"step":{"line":18,"prefix":"And","index":2,"text":"params { country = \"SEEE\" , locale : \"sv_SE\" , limit : 10 , offset : 5  }"}},{"result":{"nanos":332691500,"millis":332.6915,"status":"passed"},"step":{"line":19,"prefix":"When","index":3,"text":"method GET"},"stepLog":"19:13:06.107 request:\n1 > GET https:\/\/api.spotify.com\/v1\/browse\/Scategories?offset=5&limit=10&country+%3D+%22SEEE%22+%2C+locale=sv_SE\n1 > Authorization: Bearer BQCmtnx0w-qq8bJ2RusNOjui-D7Hwn0WxnJ7j_ZTj7lmDnbg0F59I0M1j3kW8MuDO1fwYnA4xvDTsP3FMS-mM3eecFms4B9h85sLDoOnqQxcJsH0Ecam\n1 > Host: api.spotify.com\n1 > Connection: Keep-Alive\n1 > User-Agent: Apache-HttpClient\/4.5.14 (Java\/11.0.14)\n1 > Accept-Encoding: gzip,deflate\n\n\n19:13:06.436 response time in milliseconds: 327\n1 < 404\n1 < cache-control: private, max-age=0\n1 < access-control-allow-origin: *\n1 < access-control-allow-headers: Accept, App-Platform, Authorization, Content-Type, Origin, Retry-After, Spotify-App-Version, X-Cloud-Trace-Context, client-token, content-access-token\n1 < access-control-allow-methods: GET, POST, OPTIONS, PUT, DELETE, PATCH\n1 < access-control-allow-credentials: true\n1 < access-control-max-age: 604800\n1 < Content-Length: 0\n1 < strict-transport-security: max-age=31536000\n1 < x-content-type-options: nosniff\n1 < date: Sat, 08 Apr 2023 19:11:28 GMT\n1 < server: envoy\n1 < Via: HTTP\/2 edgeproxy, 1.1 google\n1 < Alt-Svc: h3=\":443\"; ma=2592000,h3-29=\":443\"; ma=2592000\n\n\n"},{"result":{"nanos":16408300,"errorMessage":"status code was: 404, expected: 400, response time in milliseconds: 327, url: https:\/\/api.spotify.com\/v1\/browse\/Scategories?offset=5&limit=10&country+%3D+%22SEEE%22+%2C+locale=sv_SE, response: \n\nsrc\/test\/resources\/featureCategories\/GetSeveralBrowseCategories.feature:20","millis":16.4083,"status":"failed"},"step":{"line":20,"prefix":"Then","index":4,"text":"status 400"},"stepLog":"19:13:06.466 src\/test\/resources\/featureCategories\/GetSeveralBrowseCategories.feature:20\nThen status 400\nstatus code was: 404, expected: 400, response time in milliseconds: 327, url: https:\/\/api.spotify.com\/v1\/browse\/Scategories?offset=5&limit=10&country+%3D+%22SEEE%22+%2C+locale=sv_SE, response: \n\nsrc\/test\/resources\/featureCategories\/GetSeveralBrowseCategories.feature:20\n"}],"line":15,"description":"","durationMillis":732.6815,"failed":true,"error":"status code was: 404, expected: 400, response time in milliseconds: 327, url: https:\/\/api.spotify.com\/v1\/browse\/Scategories?offset=5&limit=10&country+%3D+%22SEEE%22+%2C+locale=sv_SE, response: \n\nsrc\/test\/resources\/featureCategories\/GetSeveralBrowseCategories.feature:20","executorName":"main","name":"verify if the API returns an error if i send an invalid id","startTime":1680981185719,"refId":"[2:15]","endTime":1680981186467,"exampleIndex":-1}],"callDepth":0,"name":"Get Several Browse Categories","description":"","resultDate":"2023-04-08 07:13:06 PM","durationMillis":2582.5105,"passedCount":1}