{"failedCount":1,"prefixedPath":"src\/test\/resources\/featureCategories\/GetSeveralBrowseCategories.feature","packageQualifiedName":"src.test.resources.featureCategories.GetSeveralBrowseCategories","loopIndex":-1,"relativePath":"src\/test\/resources\/featureCategories\/GetSeveralBrowseCategories.feature","scenarioResults":[{"sectionIndex":0,"stepResults":[{"result":{"nanos":1577260800,"millis":1577.2608,"status":"passed"},"step":{"background":true,"line":4,"prefix":"And","index":0,"text":"def authorization_access = call read('classpath:Authorization\/BearerToken.feature')"},"callResults":[{"failedCount":0,"prefixedPath":"classpath:Authorization\/BearerToken.feature","packageQualifiedName":"Authorization.BearerToken","loopIndex":-1,"relativePath":"Authorization\/BearerToken.feature","scenarioResults":[{"sectionIndex":0,"stepResults":[{"result":{"nanos":887100,"millis":0.8871,"status":"passed"},"step":{"line":5,"prefix":"Given","index":0,"text":"url \"https:\/\/accounts.spotify.com\/api\/token\""}},{"result":{"nanos":8593900,"millis":8.5939,"status":"passed"},"step":{"line":6,"prefix":"And","index":1,"text":"def Base64 = Java.type('Utils.Base64Encode')"}},{"result":{"nanos":1654100,"millis":1.6541,"status":"passed"},"step":{"line":7,"prefix":"And","index":2,"text":"def auth_string = client_authorization"}},{"result":{"nanos":9409500,"millis":9.4095,"status":"passed"},"step":{"line":8,"prefix":"And","index":3,"text":"def encoded_string = Base64.encode(auth_string)"}},{"result":{"nanos":13618600,"millis":13.6186,"status":"passed"},"step":{"line":9,"prefix":"And","index":4,"text":"header Authorization = \"Basic \" + encoded_string"}},{"result":{"nanos":136530900,"millis":136.5309,"status":"passed"},"step":{"line":10,"prefix":"And","index":5,"text":"form field grant_type = \"client_credentials\""}},{"result":{"nanos":1278933500,"millis":1278.9335,"status":"passed"},"step":{"line":11,"prefix":"When","index":6,"text":"method POST"},"stepLog":"19:09:42.900 request:\n1 > POST https:\/\/accounts.spotify.com\/api\/token\n1 > Authorization: Basic MzQ3NTdhOWZkOTIzNDM2OWIwOThkZGVkZTViMDQwMmM6YWViZDMyMDkyOTVlNGQxNThiN2I2M2M1ODljNGU5Mjc=\n1 > Content-Type: application\/x-www-form-urlencoded\n1 > Content-Length: 29\n1 > Host: accounts.spotify.com\n1 > Connection: Keep-Alive\n1 > User-Agent: Apache-HttpClient\/4.5.14 (Java\/11.0.14)\n1 > Accept-Encoding: gzip,deflate\ngrant_type=client_credentials\n\n19:09:43.518 response time in milliseconds: 610\n1 < 200\n1 < date: Sat, 08 Apr 2023 19:08:05 GMT\n1 < content-type: application\/json\n1 < set-cookie: __Host-device_id=AQCh3a5xAKkQCvGFmu3eLmMl1byaaVzp1DX8vc6-DvgixnBXOPQTH4tb5s2vaieZHu-ocz9VSFAYRquCFJ5xJfZXXpmV2uQzQGw;Version=1;Path=\/;Max-Age=2147483647;Secure;HttpOnly;SameSite=Lax\n1 < set-cookie: sp_tr=false;Version=1;Domain=accounts.spotify.com;Path=\/;Secure;SameSite=Lax\n1 < sp-trace-id: fcfbb0e78d15171a\n1 < x-envoy-upstream-service-time: 11\n1 < server: envoy\n1 < strict-transport-security: max-age=31536000\n1 < x-content-type-options: nosniff\n1 < vary: Accept-Encoding\n1 < Via: HTTP\/2 edgeproxy, 1.1 google\n1 < Alt-Svc: h3=\":443\"; ma=2592000,h3-29=\":443\"; ma=2592000\n1 < Transfer-Encoding: chunked\n1 < Set-Cookie: __Host-device_id=AQCh3a5xAKkQCvGFmu3eLmMl1byaaVzp1DX8vc6-DvgixnBXOPQTH4tb5s2vaieZHu-ocz9VSFAYRquCFJ5xJfZXXpmV2uQzQGw;Version=1;Path=\/;Max-Age=2147483647;Secure;HttpOnly;SameSite=Lax\n1 < Set-Cookie: sp_tr=false;Version=1;Domain=accounts.spotify.com;Path=\/;Secure;SameSite=Lax\n{\"access_token\":\"BQActo_H-DlZPzLYrbzm69q1dTFjYaoea-_Tkp94D7ke6md19mbDUIM5n-CCeSWjSohxIWn2iJcvjs0z-Gg_plhMWJyg1rcL1Q9-2de0ynHDA4TdbS7u\",\"token_type\":\"Bearer\",\"expires_in\":3600}\n\n"},{"result":{"nanos":29500,"millis":0.0295,"status":"passed"},"step":{"line":12,"prefix":"Then","index":7,"text":"status 200"}},{"result":{"nanos":6496700,"millis":6.4967,"status":"passed"},"step":{"line":13,"prefix":"And","index":8,"text":"def bearer_token = response.access_token"}}],"executorName":"main","line":3,"name":"get authorization","description":"","durationMillis":1456.1538,"startTime":1680980982067,"failed":false,"refId":"[1:3]","endTime":1680980983534,"exampleIndex":-1}],"callDepth":1,"name":"Get the bearer token","description":"","resultDate":"2023-04-08 07:09:44 PM","durationMillis":1456.1538,"passedCount":1}]},{"result":{"nanos":1017700,"millis":1.0177,"status":"passed"},"step":{"line":8,"prefix":"Given","index":0,"text":"url \"https:\/\/api.spotify.com\/v1\/browse\/categories\""}},{"result":{"nanos":1019300,"millis":1.0193,"status":"passed"},"step":{"line":9,"prefix":"And","index":1,"text":"header Authorization = 'Bearer ' + authorization_access .bearer_token"}},{"result":{"nanos":20299200,"millis":20.2992,"status":"passed"},"step":{"line":10,"prefix":"And","index":2,"text":"params { country = \"SE\" , locale : \"sv_SE\" , limit : 10 , offset : 5  }\""}},{"result":{"nanos":421298500,"millis":421.2985,"status":"passed"},"step":{"line":11,"prefix":"When","index":3,"text":"method GET"},"stepLog":"19:09:43.563 request:\n1 > GET https:\/\/api.spotify.com\/v1\/browse\/categories?country+%3D+%22SE%22+%2C+locale=sv_SE&offset=5&limit=10\n1 > Authorization: Bearer BQActo_H-DlZPzLYrbzm69q1dTFjYaoea-_Tkp94D7ke6md19mbDUIM5n-CCeSWjSohxIWn2iJcvjs0z-Gg_plhMWJyg1rcL1Q9-2de0ynHDA4TdbS7u\n1 > Host: api.spotify.com\n1 > Connection: Keep-Alive\n1 > User-Agent: Apache-HttpClient\/4.5.14 (Java\/11.0.14)\n1 > Accept-Encoding: gzip,deflate\n\n\n19:09:43.979 response time in milliseconds: 414\n1 < 200\n1 < content-type: application\/json; charset=utf-8\n1 < cache-control: public, max-age=600\n1 < x-robots-tag: noindex, nofollow\n1 < access-control-allow-origin: *\n1 < access-control-allow-headers: Accept, App-Platform, Authorization, Content-Type, Origin, Retry-After, Spotify-App-Version, X-Cloud-Trace-Context, client-token, content-access-token\n1 < access-control-allow-methods: GET, POST, OPTIONS, PUT, DELETE, PATCH\n1 < access-control-allow-credentials: true\n1 < access-control-max-age: 604800\n1 < strict-transport-security: max-age=31536000\n1 < x-content-type-options: nosniff\n1 < date: Sat, 08 Apr 2023 19:08:05 GMT\n1 < server: envoy\n1 < Via: HTTP\/2 edgeproxy, 1.1 google\n1 < Alt-Svc: h3=\":443\"; ma=2592000,h3-29=\":443\"; ma=2592000\n1 < Transfer-Encoding: chunked\n{\n  \"categories\" : {\n    \"href\" : \"https:\/\/api.spotify.com\/v1\/browse\/categories?country=MA&offset=5&limit=10\",\n    \"items\" : [ {\n      \"href\" : \"https:\/\/api.spotify.com\/v1\/browse\/categories\/0JQ5DAqbMKFNQ0fGp4byGU\",\n      \"icons\" : [ {\n        \"height\" : null,\n        \"url\" : \"https:\/\/t.scdn.co\/images\/b505b01bbe0e490cbe43b07f16212892.jpeg\",\n        \"width\" : null\n      } ],\n      \"id\" : \"0JQ5DAqbMKFNQ0fGp4byGU\",\n      \"name\" : \"Afro\"\n    }, {\n      \"href\" : \"https:\/\/api.spotify.com\/v1\/browse\/categories\/0JQ5DAqbMKFzHmL4tf05da\",\n      \"icons\" : [ {\n        \"height\" : 274,\n        \"url\" : \"https:\/\/t.scdn.co\/media\/original\/mood-274x274_976986a31ac8c49794cbdc7246fd5ad7_274x274.jpg\",\n        \"width\" : 274\n      } ],\n      \"id\" : \"0JQ5DAqbMKFzHmL4tf05da\",\n      \"name\" : \"Mood\"\n    }, {\n      \"href\" : \"https:\/\/api.spotify.com\/v1\/browse\/categories\/0JQ5DAqbMKFHaib8N0cwey\",\n      \"icons\" : [ {\n        \"height\" : null,\n        \"url\" : \"https:\/\/t.scdn.co\/images\/3a65e06ed84743b29df8c5d9102dd827.jpeg\",\n        \"width\" : null\n      } ],\n      \"id\" : \"0JQ5DAqbMKFHaib8N0cwey\",\n      \"name\" : \"Khaleeji\"\n    }, {\n      \"href\" : \"https:\/\/api.spotify.com\/v1\/browse\/categories\/0JQ5DAqbMKFLVaM30PMBm4\",\n      \"icons\" : [ {\n        \"height\" : null,\n        \"url\" : \"https:\/\/t.scdn.co\/images\/8e508d7eb5b843a89c368c9507ecc429.jpeg\",\n        \"width\" : null\n      } ],\n      \"id\" : \"0JQ5DAqbMKFLVaM30PMBm4\",\n      \"name\" : \"Summer\"\n    }, {\n      \"href\" : \"https:\/\/api.spotify.com\/v1\/browse\/categories\/0JQ5DAqbMKFxXaXKP7zcDp\",\n      \"icons\" : [ {\n        \"height\" : null,\n        \"url\" : \"https:\/\/t.scdn.co\/images\/26a60378-a374-4cd7-b894-28efa5e154cb.jpg\",\n        \"width\" : null\n      } ],\n      \"id\" : \"0JQ5DAqbMKFxXaXKP7zcDp\",\n      \"name\" : \"Latin\"\n    }, {\n      \"href\" : \"https:\/\/api.spotify.com\/v1\/browse\/categories\/0JQ5DAqbMKFGvOw3O4nLAf\",\n      \"icons\" : [ {\n        \"height\" : null,\n        \"url\" : \"https:\/\/t.scdn.co\/images\/2078afd91e4d431eb19efc5bee5ab131.jpeg\",\n        \"width\" : null\n      } ],\n      \"id\" : \"0JQ5DAqbMKFGvOw3O4nLAf\",\n      \"name\" : \"K-Pop\"\n    }, {\n      \"href\" : \"https:\/\/api.spotify.com\/v1\/browse\/categories\/0JQ5DAqbMKFObNLOHydSW8\",\n      \"icons\" : [ {\n        \"height\" : null,\n        \"url\" : \"https:\/\/t.scdn.co\/images\/495fadcefe234607b14b2db3381f3f5d.jpeg\",\n        \"width\" : null\n      } ],\n      \"id\" : \"0JQ5DAqbMKFObNLOHydSW8\",\n      \"name\" : \"Caribbean\"\n    }, {\n      \"href\" : \"https:\/\/api.spotify.com\/v1\/browse\/categories\/0JQ5DAqbMKFCfObibaOZbv\",\n      \"icons\" : [ {\n        \"height\" : null,\n        \"url\" : \"https:\/\/t.scdn.co\/images\/0d39395309ba47838ef12ce987f19d16.jpeg\",\n        \"width\" : null\n      } ],\n      \"id\" : \"0JQ5DAqbMKFCfObibaOZbv\",\n      \"name\" : \"Gaming\"\n    }, {\n      \"href\" : \"https:\/\/api.spotify.com\/v1\/browse\/categories\/0JQ5DAqbMKFRKBHIxJ5hMm\",\n      \"icons\" : [ {\n        \"height\" : null,\n        \"url\" : \"https:\/\/t.scdn.co\/images\/b4182906bf244b4994805084c057e9ee.jpeg\",\n        \"width\" : null\n      } ],\n      \"id\" : \"0JQ5DAqbMKFRKBHIxJ5hMm\",\n      \"name\" : \"Tastemakers\"\n    }, {\n      \"href\" : \"https:\/\/api.spotify.com\/v1\/browse\/categories\/0JQ5DAqbMKFLb2EqgLtpjC\",\n      \"icons\" : [ {\n        \"height\" : null,\n        \"url\" : \"https:\/\/t.scdn.co\/images\/3710b68657574bc79df14bd74629e5ac\",\n        \"width\" : null\n      } ],\n      \"id\" : \"0JQ5DAqbMKFLb2EqgLtpjC\",\n      \"name\" : \"Wellness\"\n    } ],\n    \"limit\" : 10,\n    \"next\" : \"https:\/\/api.spotify.com\/v1\/browse\/categories?country=MA&offset=15&limit=10\",\n    \"offset\" : 5,\n    \"previous\" : \"https:\/\/api.spotify.com\/v1\/browse\/categories?country=MA&offset=0&limit=10\",\n    \"total\" : 43\n  }\n}\n\n"},{"result":{"nanos":13700,"millis":0.0137,"status":"passed"},"step":{"line":12,"prefix":"Then","index":4,"text":"status 200"}},{"result":{"nanos":11968900,"millis":11.9689,"status":"passed"},"step":{"line":13,"prefix":"And","index":5,"text":"print response"},"stepLog":"19:09:43.993 [print] {\n  \"categories\": {\n    \"href\": \"https:\/\/api.spotify.com\/v1\/browse\/categories?country=MA&offset=5&limit=10\",\n    \"items\": [\n      {\n        \"href\": \"https:\/\/api.spotify.com\/v1\/browse\/categories\/0JQ5DAqbMKFNQ0fGp4byGU\",\n        \"icons\": [\n          {\n            \"height\": null,\n            \"url\": \"https:\/\/t.scdn.co\/images\/b505b01bbe0e490cbe43b07f16212892.jpeg\",\n            \"width\": null\n          }\n        ],\n        \"id\": \"0JQ5DAqbMKFNQ0fGp4byGU\",\n        \"name\": \"Afro\"\n      },\n      {\n        \"href\": \"https:\/\/api.spotify.com\/v1\/browse\/categories\/0JQ5DAqbMKFzHmL4tf05da\",\n        \"icons\": [\n          {\n            \"height\": 274,\n            \"url\": \"https:\/\/t.scdn.co\/media\/original\/mood-274x274_976986a31ac8c49794cbdc7246fd5ad7_274x274.jpg\",\n            \"width\": 274\n          }\n        ],\n        \"id\": \"0JQ5DAqbMKFzHmL4tf05da\",\n        \"name\": \"Mood\"\n      },\n      {\n        \"href\": \"https:\/\/api.spotify.com\/v1\/browse\/categories\/0JQ5DAqbMKFHaib8N0cwey\",\n        \"icons\": [\n          {\n            \"height\": null,\n            \"url\": \"https:\/\/t.scdn.co\/images\/3a65e06ed84743b29df8c5d9102dd827.jpeg\",\n            \"width\": null\n          }\n        ],\n        \"id\": \"0JQ5DAqbMKFHaib8N0cwey\",\n        \"name\": \"Khaleeji\"\n      },\n      {\n        \"href\": \"https:\/\/api.spotify.com\/v1\/browse\/categories\/0JQ5DAqbMKFLVaM30PMBm4\",\n        \"icons\": [\n          {\n            \"height\": null,\n            \"url\": \"https:\/\/t.scdn.co\/images\/8e508d7eb5b843a89c368c9507ecc429.jpeg\",\n            \"width\": null\n          }\n        ],\n        \"id\": \"0JQ5DAqbMKFLVaM30PMBm4\",\n        \"name\": \"Summer\"\n      },\n      {\n        \"href\": \"https:\/\/api.spotify.com\/v1\/browse\/categories\/0JQ5DAqbMKFxXaXKP7zcDp\",\n        \"icons\": [\n          {\n            \"height\": null,\n            \"url\": \"https:\/\/t.scdn.co\/images\/26a60378-a374-4cd7-b894-28efa5e154cb.jpg\",\n            \"width\": null\n          }\n        ],\n        \"id\": \"0JQ5DAqbMKFxXaXKP7zcDp\",\n        \"name\": \"Latin\"\n      },\n      {\n        \"href\": \"https:\/\/api.spotify.com\/v1\/browse\/categories\/0JQ5DAqbMKFGvOw3O4nLAf\",\n        \"icons\": [\n          {\n            \"height\": null,\n            \"url\": \"https:\/\/t.scdn.co\/images\/2078afd91e4d431eb19efc5bee5ab131.jpeg\",\n            \"width\": null\n          }\n        ],\n        \"id\": \"0JQ5DAqbMKFGvOw3O4nLAf\",\n        \"name\": \"K-Pop\"\n      },\n      {\n        \"href\": \"https:\/\/api.spotify.com\/v1\/browse\/categories\/0JQ5DAqbMKFObNLOHydSW8\",\n        \"icons\": [\n          {\n            \"height\": null,\n            \"url\": \"https:\/\/t.scdn.co\/images\/495fadcefe234607b14b2db3381f3f5d.jpeg\",\n            \"width\": null\n          }\n        ],\n        \"id\": \"0JQ5DAqbMKFObNLOHydSW8\",\n        \"name\": \"Caribbean\"\n      },\n      {\n        \"href\": \"https:\/\/api.spotify.com\/v1\/browse\/categories\/0JQ5DAqbMKFCfObibaOZbv\",\n        \"icons\": [\n          {\n            \"height\": null,\n            \"url\": \"https:\/\/t.scdn.co\/images\/0d39395309ba47838ef12ce987f19d16.jpeg\",\n            \"width\": null\n          }\n        ],\n        \"id\": \"0JQ5DAqbMKFCfObibaOZbv\",\n        \"name\": \"Gaming\"\n      },\n      {\n        \"href\": \"https:\/\/api.spotify.com\/v1\/browse\/categories\/0JQ5DAqbMKFRKBHIxJ5hMm\",\n        \"icons\": [\n          {\n            \"height\": null,\n            \"url\": \"https:\/\/t.scdn.co\/images\/b4182906bf244b4994805084c057e9ee.jpeg\",\n            \"width\": null\n          }\n        ],\n        \"id\": \"0JQ5DAqbMKFRKBHIxJ5hMm\",\n        \"name\": \"Tastemakers\"\n      },\n      {\n        \"href\": \"https:\/\/api.spotify.com\/v1\/browse\/categories\/0JQ5DAqbMKFLb2EqgLtpjC\",\n        \"icons\": [\n          {\n            \"height\": null,\n            \"url\": \"https:\/\/t.scdn.co\/images\/3710b68657574bc79df14bd74629e5ac\",\n            \"width\": null\n          }\n        ],\n        \"id\": \"0JQ5DAqbMKFLb2EqgLtpjC\",\n        \"name\": \"Wellness\"\n      }\n    ],\n    \"limit\": 10,\n    \"next\": \"https:\/\/api.spotify.com\/v1\/browse\/categories?country=MA&offset=15&limit=10\",\n    \"offset\": 5,\n    \"previous\": \"https:\/\/api.spotify.com\/v1\/browse\/categories?country=MA&offset=0&limit=10\",\n    \"total\": 43\n  }\n}\n \n"}],"executorName":"main","line":6,"name":"Get Several Browse Categories","description":"","durationMillis":2032.8781,"startTime":1680980981764,"failed":false,"refId":"[1:6]","endTime":1680980983993,"exampleIndex":-1},{"sectionIndex":1,"stepResults":[{"result":{"nanos":368930200,"millis":368.9302,"status":"passed"},"step":{"background":true,"line":4,"prefix":"And","index":0,"text":"def authorization_access = call read('classpath:Authorization\/BearerToken.feature')"},"callResults":[{"failedCount":0,"prefixedPath":"classpath:Authorization\/BearerToken.feature","packageQualifiedName":"Authorization.BearerToken","loopIndex":-1,"relativePath":"Authorization\/BearerToken.feature","scenarioResults":[{"sectionIndex":0,"stepResults":[{"result":{"nanos":302600,"millis":0.3026,"status":"passed"},"step":{"line":5,"prefix":"Given","index":0,"text":"url \"https:\/\/accounts.spotify.com\/api\/token\""}},{"result":{"nanos":535500,"millis":0.5355,"status":"passed"},"step":{"line":6,"prefix":"And","index":1,"text":"def Base64 = Java.type('Utils.Base64Encode')"}},{"result":{"nanos":289000,"millis":0.289,"status":"passed"},"step":{"line":7,"prefix":"And","index":2,"text":"def auth_string = client_authorization"}},{"result":{"nanos":483400,"millis":0.4834,"status":"passed"},"step":{"line":8,"prefix":"And","index":3,"text":"def encoded_string = Base64.encode(auth_string)"}},{"result":{"nanos":416400,"millis":0.4164,"status":"passed"},"step":{"line":9,"prefix":"And","index":4,"text":"header Authorization = \"Basic \" + encoded_string"}},{"result":{"nanos":389100,"millis":0.3891,"status":"passed"},"step":{"line":10,"prefix":"And","index":5,"text":"form field grant_type = \"client_credentials\""}},{"result":{"nanos":354751000,"millis":354.751,"status":"passed"},"step":{"line":11,"prefix":"When","index":6,"text":"method POST"},"stepLog":"19:09:44.015 request:\n1 > POST https:\/\/accounts.spotify.com\/api\/token\n1 > Authorization: Basic MzQ3NTdhOWZkOTIzNDM2OWIwOThkZGVkZTViMDQwMmM6YWViZDMyMDkyOTVlNGQxNThiN2I2M2M1ODljNGU5Mjc=\n1 > Content-Type: application\/x-www-form-urlencoded\n1 > Content-Length: 29\n1 > Host: accounts.spotify.com\n1 > Connection: Keep-Alive\n1 > User-Agent: Apache-HttpClient\/4.5.14 (Java\/11.0.14)\n1 > Accept-Encoding: gzip,deflate\ngrant_type=client_credentials\n\n19:09:44.365 response time in milliseconds: 348\n1 < 200\n1 < date: Sat, 08 Apr 2023 19:08:06 GMT\n1 < content-type: application\/json\n1 < set-cookie: __Host-device_id=AQAdY_-bXkeew90jNhtWNf2E_LVDRcg2fhNEeczatVS1m29PdK4kXRXBb1tB9ERxIl5yv5WUj0dJY-2Z9622yg5GA7_djupFBug;Version=1;Path=\/;Max-Age=2147483647;Secure;HttpOnly;SameSite=Lax\n1 < set-cookie: sp_tr=false;Version=1;Domain=accounts.spotify.com;Path=\/;Secure;SameSite=Lax\n1 < sp-trace-id: 8700cdf37c583f9a\n1 < x-envoy-upstream-service-time: 11\n1 < server: envoy\n1 < strict-transport-security: max-age=31536000\n1 < x-content-type-options: nosniff\n1 < vary: Accept-Encoding\n1 < Via: HTTP\/2 edgeproxy, 1.1 google\n1 < Alt-Svc: h3=\":443\"; ma=2592000,h3-29=\":443\"; ma=2592000\n1 < Transfer-Encoding: chunked\n1 < Set-Cookie: __Host-device_id=AQAdY_-bXkeew90jNhtWNf2E_LVDRcg2fhNEeczatVS1m29PdK4kXRXBb1tB9ERxIl5yv5WUj0dJY-2Z9622yg5GA7_djupFBug;Version=1;Path=\/;Max-Age=2147483647;Secure;HttpOnly;SameSite=Lax\n1 < Set-Cookie: sp_tr=false;Version=1;Domain=accounts.spotify.com;Path=\/;Secure;SameSite=Lax\n{\"access_token\":\"BQA0jTCRncWlIJSls_jv6-bTXvv64X15We2bhKWETpduOBS1fi9H3SlZJn8JM4CqLXoCCI7vJdF__AFboFoskjDzkABafMM_Hplxpr7uFp2wc6XFGcbK\",\"token_type\":\"Bearer\",\"expires_in\":3600}\n\n"},{"result":{"nanos":26900,"millis":0.0269,"status":"passed"},"step":{"line":12,"prefix":"Then","index":7,"text":"status 200"}},{"result":{"nanos":1127100,"millis":1.1271,"status":"passed"},"step":{"line":13,"prefix":"And","index":8,"text":"def bearer_token = response.access_token"}}],"executorName":"main","line":3,"name":"get authorization","description":"","durationMillis":358.321,"startTime":1680980984010,"failed":false,"refId":"[1:3]","endTime":1680980984369,"exampleIndex":-1}],"callDepth":1,"name":"Get the bearer token","description":"","resultDate":"2023-04-08 07:09:44 PM","durationMillis":358.321,"passedCount":1}]},{"result":{"nanos":884500,"millis":0.8845,"status":"passed"},"step":{"line":16,"prefix":"Given","index":0,"text":"url \"https:\/\/api.spotify.com\/v1\/browse\/Scategories\""}},{"result":{"nanos":507400,"millis":0.5074,"status":"passed"},"step":{"line":17,"prefix":"And","index":1,"text":"header Authorization = 'Bearer ' + authorization_access .bearer_token"}},{"result":{"nanos":320100,"millis":0.3201,"status":"passed"},"step":{"line":18,"prefix":"And","index":2,"text":"params { country = \"SE\" , locale : \"sv_SE\" , limit : 10 , offset : 5  }\""}},{"result":{"nanos":307885600,"millis":307.8856,"status":"passed"},"step":{"line":19,"prefix":"When","index":3,"text":"method GET"},"stepLog":"19:09:44.374 request:\n1 > GET https:\/\/api.spotify.com\/v1\/browse\/Scategories?country+%3D+%22SE%22+%2C+locale=sv_SE&offset=5&limit=10\n1 > Authorization: Bearer BQA0jTCRncWlIJSls_jv6-bTXvv64X15We2bhKWETpduOBS1fi9H3SlZJn8JM4CqLXoCCI7vJdF__AFboFoskjDzkABafMM_Hplxpr7uFp2wc6XFGcbK\n1 > Host: api.spotify.com\n1 > Connection: Keep-Alive\n1 > User-Agent: Apache-HttpClient\/4.5.14 (Java\/11.0.14)\n1 > Accept-Encoding: gzip,deflate\n\n\n19:09:44.679 response time in milliseconds: 304\n1 < 404\n1 < cache-control: private, max-age=0\n1 < access-control-allow-origin: *\n1 < access-control-allow-headers: Accept, App-Platform, Authorization, Content-Type, Origin, Retry-After, Spotify-App-Version, X-Cloud-Trace-Context, client-token, content-access-token\n1 < access-control-allow-methods: GET, POST, OPTIONS, PUT, DELETE, PATCH\n1 < access-control-allow-credentials: true\n1 < access-control-max-age: 604800\n1 < Content-Length: 0\n1 < strict-transport-security: max-age=31536000\n1 < x-content-type-options: nosniff\n1 < date: Sat, 08 Apr 2023 19:08:06 GMT\n1 < server: envoy\n1 < Via: HTTP\/2 edgeproxy, 1.1 google\n1 < Alt-Svc: h3=\":443\"; ma=2592000,h3-29=\":443\"; ma=2592000\n\n\n"},{"result":{"nanos":14585700,"errorMessage":"status code was: 404, expected: 400, response time in milliseconds: 304, url: https:\/\/api.spotify.com\/v1\/browse\/Scategories?country+%3D+%22SE%22+%2C+locale=sv_SE&offset=5&limit=10, response: \n\nsrc\/test\/resources\/featureCategories\/GetSeveralBrowseCategories.feature:20","millis":14.5857,"status":"failed"},"step":{"line":20,"prefix":"Then","index":4,"text":"status 400"},"stepLog":"19:09:44.708 src\/test\/resources\/featureCategories\/GetSeveralBrowseCategories.feature:20\nThen status 400\nstatus code was: 404, expected: 400, response time in milliseconds: 304, url: https:\/\/api.spotify.com\/v1\/browse\/Scategories?country+%3D+%22SE%22+%2C+locale=sv_SE&offset=5&limit=10, response: \n\nsrc\/test\/resources\/featureCategories\/GetSeveralBrowseCategories.feature:20\n"}],"line":15,"description":"","durationMillis":693.1135,"failed":true,"error":"status code was: 404, expected: 400, response time in milliseconds: 304, url: https:\/\/api.spotify.com\/v1\/browse\/Scategories?country+%3D+%22SE%22+%2C+locale=sv_SE&offset=5&limit=10, response: \n\nsrc\/test\/resources\/featureCategories\/GetSeveralBrowseCategories.feature:20","executorName":"main","name":"verify if the API returns an error if i send an invalid id","startTime":1680980983999,"refId":"[2:15]","endTime":1680980984708,"exampleIndex":-1}],"callDepth":0,"name":"Get Several Browse Categories","description":"","resultDate":"2023-04-08 07:09:44 PM","durationMillis":2725.9916,"passedCount":1}