{"failedCount":1,"prefixedPath":"src\/test\/resources\/featureCategories\/GetSeveralBrowseCategories.feature","packageQualifiedName":"src.test.resources.featureCategories.GetSeveralBrowseCategories","loopIndex":-1,"relativePath":"src\/test\/resources\/featureCategories\/GetSeveralBrowseCategories.feature","scenarioResults":[{"sectionIndex":0,"stepResults":[{"result":{"nanos":1616473600,"millis":1616.4736,"status":"passed"},"step":{"background":true,"line":4,"prefix":"And","index":0,"text":"def authorization_access = call read('classpath:Authorization\/BearerToken.feature')"},"callResults":[{"failedCount":0,"prefixedPath":"classpath:Authorization\/BearerToken.feature","packageQualifiedName":"Authorization.BearerToken","loopIndex":-1,"relativePath":"Authorization\/BearerToken.feature","scenarioResults":[{"sectionIndex":0,"stepResults":[{"result":{"nanos":1011300,"millis":1.0113,"status":"passed"},"step":{"line":5,"prefix":"Given","index":0,"text":"url \"https:\/\/accounts.spotify.com\/api\/token\""}},{"result":{"nanos":8847300,"millis":8.8473,"status":"passed"},"step":{"line":6,"prefix":"And","index":1,"text":"def Base64 = Java.type('Utils.Base64Encode')"}},{"result":{"nanos":1667400,"millis":1.6674,"status":"passed"},"step":{"line":7,"prefix":"And","index":2,"text":"def auth_string = client_authorization"}},{"result":{"nanos":11534700,"millis":11.5347,"status":"passed"},"step":{"line":8,"prefix":"And","index":3,"text":"def encoded_string = Base64.encode(auth_string)"}},{"result":{"nanos":17255200,"millis":17.2552,"status":"passed"},"step":{"line":9,"prefix":"And","index":4,"text":"header Authorization = \"Basic \" + encoded_string"}},{"result":{"nanos":193705000,"millis":193.705,"status":"passed"},"step":{"line":10,"prefix":"And","index":5,"text":"form field grant_type = \"client_credentials\""}},{"result":{"nanos":1271954200,"millis":1271.9542,"status":"passed"},"step":{"line":11,"prefix":"When","index":6,"text":"method POST"},"stepLog":"19:12:46.593 request:\n1 > POST https:\/\/accounts.spotify.com\/api\/token\n1 > Authorization: Basic MzQ3NTdhOWZkOTIzNDM2OWIwOThkZGVkZTViMDQwMmM6YWViZDMyMDkyOTVlNGQxNThiN2I2M2M1ODljNGU5Mjc=\n1 > Content-Type: application\/x-www-form-urlencoded\n1 > Content-Length: 29\n1 > Host: accounts.spotify.com\n1 > Connection: Keep-Alive\n1 > User-Agent: Apache-HttpClient\/4.5.14 (Java\/11.0.14)\n1 > Accept-Encoding: gzip,deflate\ngrant_type=client_credentials\n\n19:12:47.203 response time in milliseconds: 602\n1 < 200\n1 < date: Sat, 08 Apr 2023 19:11:09 GMT\n1 < content-type: application\/json\n1 < set-cookie: __Host-device_id=AQBhWlc-ObhUuC7RsAxlOpsNJeLY1McaVhqEmq09Ic4jmidY9pRHbGOeXUexvnptYXlWdpA5ZInAzYljyhX8beOubBI2tV_COW4;Version=1;Path=\/;Max-Age=2147483647;Secure;HttpOnly;SameSite=Lax\n1 < set-cookie: sp_tr=false;Version=1;Domain=accounts.spotify.com;Path=\/;Secure;SameSite=Lax\n1 < sp-trace-id: a6fb88db7eadd342\n1 < x-envoy-upstream-service-time: 9\n1 < server: envoy\n1 < strict-transport-security: max-age=31536000\n1 < x-content-type-options: nosniff\n1 < vary: Accept-Encoding\n1 < Via: HTTP\/2 edgeproxy, 1.1 google\n1 < Alt-Svc: h3=\":443\"; ma=2592000,h3-29=\":443\"; ma=2592000\n1 < Transfer-Encoding: chunked\n1 < Set-Cookie: __Host-device_id=AQBhWlc-ObhUuC7RsAxlOpsNJeLY1McaVhqEmq09Ic4jmidY9pRHbGOeXUexvnptYXlWdpA5ZInAzYljyhX8beOubBI2tV_COW4;Version=1;Path=\/;Max-Age=2147483647;Secure;HttpOnly;SameSite=Lax\n1 < Set-Cookie: sp_tr=false;Version=1;Domain=accounts.spotify.com;Path=\/;Secure;SameSite=Lax\n{\"access_token\":\"BQDI7eAsrHoO8vSYS2HolqEV_IsTAcPKU3AHUuc3V-VBYptEZ3Lk5uXEnh9_kBus7tx5dU_DR1-YzY5gx8kx3-W4V7AGJVINkSAqSxO-rPyM9wjHIrFu\",\"token_type\":\"Bearer\",\"expires_in\":3600}\n\n"},{"result":{"nanos":24700,"millis":0.0247,"status":"passed"},"step":{"line":12,"prefix":"Then","index":7,"text":"status 200"}},{"result":{"nanos":5882000,"millis":5.882,"status":"passed"},"step":{"line":13,"prefix":"And","index":8,"text":"def bearer_token = response.access_token"}}],"executorName":"main","line":3,"name":"get authorization","description":"","durationMillis":1511.8818,"startTime":1680981165692,"failed":false,"refId":"[1:3]","endTime":1680981167216,"exampleIndex":-1}],"callDepth":1,"name":"Get the bearer token","description":"","resultDate":"2023-04-08 07:12:48 PM","durationMillis":1511.8818,"passedCount":1}]},{"result":{"nanos":1026400,"millis":1.0264,"status":"passed"},"step":{"line":8,"prefix":"Given","index":0,"text":"url \"https:\/\/api.spotify.com\/v1\/browse\/categories\""}},{"result":{"nanos":1010000,"millis":1.01,"status":"passed"},"step":{"line":9,"prefix":"And","index":1,"text":"header Authorization = 'Bearer ' + authorization_access .bearer_token"}},{"result":{"nanos":18364500,"millis":18.3645,"status":"passed"},"step":{"line":10,"prefix":"And","index":2,"text":"params { country = \"SE\" , locale : \"sv_SE\" , limit : 10 , offset : 5  }"}},{"result":{"nanos":389722400,"millis":389.7224,"status":"passed"},"step":{"line":11,"prefix":"When","index":3,"text":"method GET"},"stepLog":"19:12:47.243 request:\n1 > GET https:\/\/api.spotify.com\/v1\/browse\/categories?country+%3D+%22SE%22+%2C+locale=sv_SE&offset=5&limit=10\n1 > Authorization: Bearer BQDI7eAsrHoO8vSYS2HolqEV_IsTAcPKU3AHUuc3V-VBYptEZ3Lk5uXEnh9_kBus7tx5dU_DR1-YzY5gx8kx3-W4V7AGJVINkSAqSxO-rPyM9wjHIrFu\n1 > Host: api.spotify.com\n1 > Connection: Keep-Alive\n1 > User-Agent: Apache-HttpClient\/4.5.14 (Java\/11.0.14)\n1 > Accept-Encoding: gzip,deflate\n\n\n19:12:47.623 response time in milliseconds: 377\n1 < 200\n1 < content-type: application\/json; charset=utf-8\n1 < cache-control: public, max-age=600\n1 < x-robots-tag: noindex, nofollow\n1 < access-control-allow-origin: *\n1 < access-control-allow-headers: Accept, App-Platform, Authorization, Content-Type, Origin, Retry-After, Spotify-App-Version, X-Cloud-Trace-Context, client-token, content-access-token\n1 < access-control-allow-methods: GET, POST, OPTIONS, PUT, DELETE, PATCH\n1 < access-control-allow-credentials: true\n1 < access-control-max-age: 604800\n1 < strict-transport-security: max-age=31536000\n1 < x-content-type-options: nosniff\n1 < date: Sat, 08 Apr 2023 19:11:09 GMT\n1 < server: envoy\n1 < Via: HTTP\/2 edgeproxy, 1.1 google\n1 < Alt-Svc: h3=\":443\"; ma=2592000,h3-29=\":443\"; ma=2592000\n1 < Transfer-Encoding: chunked\n{\n  \"categories\" : {\n    \"href\" : \"https:\/\/api.spotify.com\/v1\/browse\/categories?country=MA&offset=5&limit=10\",\n    \"items\" : [ {\n      \"href\" : \"https:\/\/api.spotify.com\/v1\/browse\/categories\/0JQ5DAqbMKFNQ0fGp4byGU\",\n      \"icons\" : [ {\n        \"height\" : null,\n        \"url\" : \"https:\/\/t.scdn.co\/images\/b505b01bbe0e490cbe43b07f16212892.jpeg\",\n        \"width\" : null\n      } ],\n      \"id\" : \"0JQ5DAqbMKFNQ0fGp4byGU\",\n      \"name\" : \"Afro\"\n    }, {\n      \"href\" : \"https:\/\/api.spotify.com\/v1\/browse\/categories\/0JQ5DAqbMKFzHmL4tf05da\",\n      \"icons\" : [ {\n        \"height\" : 274,\n        \"url\" : \"https:\/\/t.scdn.co\/media\/original\/mood-274x274_976986a31ac8c49794cbdc7246fd5ad7_274x274.jpg\",\n        \"width\" : 274\n      } ],\n      \"id\" : \"0JQ5DAqbMKFzHmL4tf05da\",\n      \"name\" : \"Mood\"\n    }, {\n      \"href\" : \"https:\/\/api.spotify.com\/v1\/browse\/categories\/0JQ5DAqbMKFHaib8N0cwey\",\n      \"icons\" : [ {\n        \"height\" : null,\n        \"url\" : \"https:\/\/t.scdn.co\/images\/3a65e06ed84743b29df8c5d9102dd827.jpeg\",\n        \"width\" : null\n      } ],\n      \"id\" : \"0JQ5DAqbMKFHaib8N0cwey\",\n      \"name\" : \"Khaleeji\"\n    }, {\n      \"href\" : \"https:\/\/api.spotify.com\/v1\/browse\/categories\/0JQ5DAqbMKFLVaM30PMBm4\",\n      \"icons\" : [ {\n        \"height\" : null,\n        \"url\" : \"https:\/\/t.scdn.co\/images\/8e508d7eb5b843a89c368c9507ecc429.jpeg\",\n        \"width\" : null\n      } ],\n      \"id\" : \"0JQ5DAqbMKFLVaM30PMBm4\",\n      \"name\" : \"Summer\"\n    }, {\n      \"href\" : \"https:\/\/api.spotify.com\/v1\/browse\/categories\/0JQ5DAqbMKFxXaXKP7zcDp\",\n      \"icons\" : [ {\n        \"height\" : null,\n        \"url\" : \"https:\/\/t.scdn.co\/images\/26a60378-a374-4cd7-b894-28efa5e154cb.jpg\",\n        \"width\" : null\n      } ],\n      \"id\" : \"0JQ5DAqbMKFxXaXKP7zcDp\",\n      \"name\" : \"Latin\"\n    }, {\n      \"href\" : \"https:\/\/api.spotify.com\/v1\/browse\/categories\/0JQ5DAqbMKFGvOw3O4nLAf\",\n      \"icons\" : [ {\n        \"height\" : null,\n        \"url\" : \"https:\/\/t.scdn.co\/images\/2078afd91e4d431eb19efc5bee5ab131.jpeg\",\n        \"width\" : null\n      } ],\n      \"id\" : \"0JQ5DAqbMKFGvOw3O4nLAf\",\n      \"name\" : \"K-Pop\"\n    }, {\n      \"href\" : \"https:\/\/api.spotify.com\/v1\/browse\/categories\/0JQ5DAqbMKFObNLOHydSW8\",\n      \"icons\" : [ {\n        \"height\" : null,\n        \"url\" : \"https:\/\/t.scdn.co\/images\/495fadcefe234607b14b2db3381f3f5d.jpeg\",\n        \"width\" : null\n      } ],\n      \"id\" : \"0JQ5DAqbMKFObNLOHydSW8\",\n      \"name\" : \"Caribbean\"\n    }, {\n      \"href\" : \"https:\/\/api.spotify.com\/v1\/browse\/categories\/0JQ5DAqbMKFCfObibaOZbv\",\n      \"icons\" : [ {\n        \"height\" : null,\n        \"url\" : \"https:\/\/t.scdn.co\/images\/0d39395309ba47838ef12ce987f19d16.jpeg\",\n        \"width\" : null\n      } ],\n      \"id\" : \"0JQ5DAqbMKFCfObibaOZbv\",\n      \"name\" : \"Gaming\"\n    }, {\n      \"href\" : \"https:\/\/api.spotify.com\/v1\/browse\/categories\/0JQ5DAqbMKFRKBHIxJ5hMm\",\n      \"icons\" : [ {\n        \"height\" : null,\n        \"url\" : \"https:\/\/t.scdn.co\/images\/b4182906bf244b4994805084c057e9ee.jpeg\",\n        \"width\" : null\n      } ],\n      \"id\" : \"0JQ5DAqbMKFRKBHIxJ5hMm\",\n      \"name\" : \"Tastemakers\"\n    }, {\n      \"href\" : \"https:\/\/api.spotify.com\/v1\/browse\/categories\/0JQ5DAqbMKFLb2EqgLtpjC\",\n      \"icons\" : [ {\n        \"height\" : null,\n        \"url\" : \"https:\/\/t.scdn.co\/images\/3710b68657574bc79df14bd74629e5ac\",\n        \"width\" : null\n      } ],\n      \"id\" : \"0JQ5DAqbMKFLb2EqgLtpjC\",\n      \"name\" : \"Wellness\"\n    } ],\n    \"limit\" : 10,\n    \"next\" : \"https:\/\/api.spotify.com\/v1\/browse\/categories?country=MA&offset=15&limit=10\",\n    \"offset\" : 5,\n    \"previous\" : \"https:\/\/api.spotify.com\/v1\/browse\/categories?country=MA&offset=0&limit=10\",\n    \"total\" : 43\n  }\n}\n\n"},{"result":{"nanos":29900,"millis":0.0299,"status":"passed"},"step":{"line":12,"prefix":"Then","index":4,"text":"status 200"}},{"result":{"nanos":13438600,"millis":13.4386,"status":"passed"},"step":{"line":13,"prefix":"And","index":5,"text":"print response"},"stepLog":"19:12:47.643 [print] {\n  \"categories\": {\n    \"href\": \"https:\/\/api.spotify.com\/v1\/browse\/categories?country=MA&offset=5&limit=10\",\n    \"items\": [\n      {\n        \"href\": \"https:\/\/api.spotify.com\/v1\/browse\/categories\/0JQ5DAqbMKFNQ0fGp4byGU\",\n        \"icons\": [\n          {\n            \"height\": null,\n            \"url\": \"https:\/\/t.scdn.co\/images\/b505b01bbe0e490cbe43b07f16212892.jpeg\",\n            \"width\": null\n          }\n        ],\n        \"id\": \"0JQ5DAqbMKFNQ0fGp4byGU\",\n        \"name\": \"Afro\"\n      },\n      {\n        \"href\": \"https:\/\/api.spotify.com\/v1\/browse\/categories\/0JQ5DAqbMKFzHmL4tf05da\",\n        \"icons\": [\n          {\n            \"height\": 274,\n            \"url\": \"https:\/\/t.scdn.co\/media\/original\/mood-274x274_976986a31ac8c49794cbdc7246fd5ad7_274x274.jpg\",\n            \"width\": 274\n          }\n        ],\n        \"id\": \"0JQ5DAqbMKFzHmL4tf05da\",\n        \"name\": \"Mood\"\n      },\n      {\n        \"href\": \"https:\/\/api.spotify.com\/v1\/browse\/categories\/0JQ5DAqbMKFHaib8N0cwey\",\n        \"icons\": [\n          {\n            \"height\": null,\n            \"url\": \"https:\/\/t.scdn.co\/images\/3a65e06ed84743b29df8c5d9102dd827.jpeg\",\n            \"width\": null\n          }\n        ],\n        \"id\": \"0JQ5DAqbMKFHaib8N0cwey\",\n        \"name\": \"Khaleeji\"\n      },\n      {\n        \"href\": \"https:\/\/api.spotify.com\/v1\/browse\/categories\/0JQ5DAqbMKFLVaM30PMBm4\",\n        \"icons\": [\n          {\n            \"height\": null,\n            \"url\": \"https:\/\/t.scdn.co\/images\/8e508d7eb5b843a89c368c9507ecc429.jpeg\",\n            \"width\": null\n          }\n        ],\n        \"id\": \"0JQ5DAqbMKFLVaM30PMBm4\",\n        \"name\": \"Summer\"\n      },\n      {\n        \"href\": \"https:\/\/api.spotify.com\/v1\/browse\/categories\/0JQ5DAqbMKFxXaXKP7zcDp\",\n        \"icons\": [\n          {\n            \"height\": null,\n            \"url\": \"https:\/\/t.scdn.co\/images\/26a60378-a374-4cd7-b894-28efa5e154cb.jpg\",\n            \"width\": null\n          }\n        ],\n        \"id\": \"0JQ5DAqbMKFxXaXKP7zcDp\",\n        \"name\": \"Latin\"\n      },\n      {\n        \"href\": \"https:\/\/api.spotify.com\/v1\/browse\/categories\/0JQ5DAqbMKFGvOw3O4nLAf\",\n        \"icons\": [\n          {\n            \"height\": null,\n            \"url\": \"https:\/\/t.scdn.co\/images\/2078afd91e4d431eb19efc5bee5ab131.jpeg\",\n            \"width\": null\n          }\n        ],\n        \"id\": \"0JQ5DAqbMKFGvOw3O4nLAf\",\n        \"name\": \"K-Pop\"\n      },\n      {\n        \"href\": \"https:\/\/api.spotify.com\/v1\/browse\/categories\/0JQ5DAqbMKFObNLOHydSW8\",\n        \"icons\": [\n          {\n            \"height\": null,\n            \"url\": \"https:\/\/t.scdn.co\/images\/495fadcefe234607b14b2db3381f3f5d.jpeg\",\n            \"width\": null\n          }\n        ],\n        \"id\": \"0JQ5DAqbMKFObNLOHydSW8\",\n        \"name\": \"Caribbean\"\n      },\n      {\n        \"href\": \"https:\/\/api.spotify.com\/v1\/browse\/categories\/0JQ5DAqbMKFCfObibaOZbv\",\n        \"icons\": [\n          {\n            \"height\": null,\n            \"url\": \"https:\/\/t.scdn.co\/images\/0d39395309ba47838ef12ce987f19d16.jpeg\",\n            \"width\": null\n          }\n        ],\n        \"id\": \"0JQ5DAqbMKFCfObibaOZbv\",\n        \"name\": \"Gaming\"\n      },\n      {\n        \"href\": \"https:\/\/api.spotify.com\/v1\/browse\/categories\/0JQ5DAqbMKFRKBHIxJ5hMm\",\n        \"icons\": [\n          {\n            \"height\": null,\n            \"url\": \"https:\/\/t.scdn.co\/images\/b4182906bf244b4994805084c057e9ee.jpeg\",\n            \"width\": null\n          }\n        ],\n        \"id\": \"0JQ5DAqbMKFRKBHIxJ5hMm\",\n        \"name\": \"Tastemakers\"\n      },\n      {\n        \"href\": \"https:\/\/api.spotify.com\/v1\/browse\/categories\/0JQ5DAqbMKFLb2EqgLtpjC\",\n        \"icons\": [\n          {\n            \"height\": null,\n            \"url\": \"https:\/\/t.scdn.co\/images\/3710b68657574bc79df14bd74629e5ac\",\n            \"width\": null\n          }\n        ],\n        \"id\": \"0JQ5DAqbMKFLb2EqgLtpjC\",\n        \"name\": \"Wellness\"\n      }\n    ],\n    \"limit\": 10,\n    \"next\": \"https:\/\/api.spotify.com\/v1\/browse\/categories?country=MA&offset=15&limit=10\",\n    \"offset\": 5,\n    \"previous\": \"https:\/\/api.spotify.com\/v1\/browse\/categories?country=MA&offset=0&limit=10\",\n    \"total\": 43\n  }\n}\n \n"}],"executorName":"main","line":6,"name":"Get Several Browse Categories","description":"","durationMillis":2040.0654,"startTime":1680981165402,"failed":false,"refId":"[1:6]","endTime":1680981167643,"exampleIndex":-1},{"sectionIndex":1,"stepResults":[{"result":{"nanos":412764100,"millis":412.7641,"status":"passed"},"step":{"background":true,"line":4,"prefix":"And","index":0,"text":"def authorization_access = call read('classpath:Authorization\/BearerToken.feature')"},"callResults":[{"failedCount":0,"prefixedPath":"classpath:Authorization\/BearerToken.feature","packageQualifiedName":"Authorization.BearerToken","loopIndex":-1,"relativePath":"Authorization\/BearerToken.feature","scenarioResults":[{"sectionIndex":0,"stepResults":[{"result":{"nanos":339700,"millis":0.3397,"status":"passed"},"step":{"line":5,"prefix":"Given","index":0,"text":"url \"https:\/\/accounts.spotify.com\/api\/token\""}},{"result":{"nanos":495600,"millis":0.4956,"status":"passed"},"step":{"line":6,"prefix":"And","index":1,"text":"def Base64 = Java.type('Utils.Base64Encode')"}},{"result":{"nanos":306900,"millis":0.3069,"status":"passed"},"step":{"line":7,"prefix":"And","index":2,"text":"def auth_string = client_authorization"}},{"result":{"nanos":614400,"millis":0.6144,"status":"passed"},"step":{"line":8,"prefix":"And","index":3,"text":"def encoded_string = Base64.encode(auth_string)"}},{"result":{"nanos":391900,"millis":0.3919,"status":"passed"},"step":{"line":9,"prefix":"And","index":4,"text":"header Authorization = \"Basic \" + encoded_string"}},{"result":{"nanos":495800,"millis":0.4958,"status":"passed"},"step":{"line":10,"prefix":"And","index":5,"text":"form field grant_type = \"client_credentials\""}},{"result":{"nanos":392786600,"millis":392.7866,"status":"passed"},"step":{"line":11,"prefix":"When","index":6,"text":"method POST"},"stepLog":"19:12:47.670 request:\n1 > POST https:\/\/accounts.spotify.com\/api\/token\n1 > Authorization: Basic MzQ3NTdhOWZkOTIzNDM2OWIwOThkZGVkZTViMDQwMmM6YWViZDMyMDkyOTVlNGQxNThiN2I2M2M1ODljNGU5Mjc=\n1 > Content-Type: application\/x-www-form-urlencoded\n1 > Content-Length: 29\n1 > Host: accounts.spotify.com\n1 > Connection: Keep-Alive\n1 > User-Agent: Apache-HttpClient\/4.5.14 (Java\/11.0.14)\n1 > Accept-Encoding: gzip,deflate\ngrant_type=client_credentials\n\n19:12:48.058 response time in milliseconds: 386\n1 < 200\n1 < date: Sat, 08 Apr 2023 19:11:10 GMT\n1 < content-type: application\/json\n1 < set-cookie: __Host-device_id=AQCqpTMK7exMcHP38h81T9taxU3v3nUiyAXN32WgZnrZiwdhBhcWDyb5kBilU9YAElICFtjzHi12L8ubcu7ItcpR-up_0PDEUe8;Version=1;Path=\/;Max-Age=2147483647;Secure;HttpOnly;SameSite=Lax\n1 < set-cookie: sp_tr=false;Version=1;Domain=accounts.spotify.com;Path=\/;Secure;SameSite=Lax\n1 < sp-trace-id: 2138d2f4dee4f3d7\n1 < x-envoy-upstream-service-time: 10\n1 < server: envoy\n1 < strict-transport-security: max-age=31536000\n1 < x-content-type-options: nosniff\n1 < vary: Accept-Encoding\n1 < Via: HTTP\/2 edgeproxy, 1.1 google\n1 < Alt-Svc: h3=\":443\"; ma=2592000,h3-29=\":443\"; ma=2592000\n1 < Transfer-Encoding: chunked\n1 < Set-Cookie: __Host-device_id=AQCqpTMK7exMcHP38h81T9taxU3v3nUiyAXN32WgZnrZiwdhBhcWDyb5kBilU9YAElICFtjzHi12L8ubcu7ItcpR-up_0PDEUe8;Version=1;Path=\/;Max-Age=2147483647;Secure;HttpOnly;SameSite=Lax\n1 < Set-Cookie: sp_tr=false;Version=1;Domain=accounts.spotify.com;Path=\/;Secure;SameSite=Lax\n{\"access_token\":\"BQDwW8Y8MCwxlkPZ78YdR6pqT8UhcKr8EkBChhp5-i5IyWMzES3XGtw5gOSiujvBOX4U-Jyie-Api6dMCb0_zuVFoq8-2BoQaZTN3-7FBtIFd32erXjU\",\"token_type\":\"Bearer\",\"expires_in\":3600}\n\n"},{"result":{"nanos":24800,"millis":0.0248,"status":"passed"},"step":{"line":12,"prefix":"Then","index":7,"text":"status 200"}},{"result":{"nanos":2730400,"millis":2.7304,"status":"passed"},"step":{"line":13,"prefix":"And","index":8,"text":"def bearer_token = response.access_token"}}],"executorName":"main","line":3,"name":"get authorization","description":"","durationMillis":398.1861,"startTime":1680981167665,"failed":false,"refId":"[1:3]","endTime":1680981168064,"exampleIndex":-1}],"callDepth":1,"name":"Get the bearer token","description":"","resultDate":"2023-04-08 07:12:48 PM","durationMillis":398.1861,"passedCount":1}]},{"result":{"nanos":1279200,"millis":1.2792,"status":"passed"},"step":{"line":16,"prefix":"Given","index":0,"text":"url \"https:\/\/api.spotify.com\/v1\/browse\/Scategories\""}},{"result":{"nanos":2438900,"millis":2.4389,"status":"passed"},"step":{"line":17,"prefix":"And","index":1,"text":"header Authorization = 'Bearer ' + authorization_access .bearer_token"}},{"result":{"nanos":834200,"millis":0.8342,"status":"passed"},"step":{"line":18,"prefix":"And","index":2,"text":"params { country = \"SE\" , locale : \"sv_SE\" , limit : 10 , offset : 5  }"}},{"result":{"nanos":340672000,"millis":340.672,"status":"passed"},"step":{"line":19,"prefix":"When","index":3,"text":"method GET"},"stepLog":"19:12:48.074 request:\n1 > GET https:\/\/api.spotify.com\/v1\/browse\/Scategories?country+%3D+%22SE%22+%2C+locale=sv_SE&offset=5&limit=10\n1 > Authorization: Bearer BQDwW8Y8MCwxlkPZ78YdR6pqT8UhcKr8EkBChhp5-i5IyWMzES3XGtw5gOSiujvBOX4U-Jyie-Api6dMCb0_zuVFoq8-2BoQaZTN3-7FBtIFd32erXjU\n1 > Host: api.spotify.com\n1 > Connection: Keep-Alive\n1 > User-Agent: Apache-HttpClient\/4.5.14 (Java\/11.0.14)\n1 > Accept-Encoding: gzip,deflate\n\n\n19:12:48.410 response time in milliseconds: 335\n1 < 404\n1 < cache-control: private, max-age=0\n1 < access-control-allow-origin: *\n1 < access-control-allow-headers: Accept, App-Platform, Authorization, Content-Type, Origin, Retry-After, Spotify-App-Version, X-Cloud-Trace-Context, client-token, content-access-token\n1 < access-control-allow-methods: GET, POST, OPTIONS, PUT, DELETE, PATCH\n1 < access-control-allow-credentials: true\n1 < access-control-max-age: 604800\n1 < Content-Length: 0\n1 < strict-transport-security: max-age=31536000\n1 < x-content-type-options: nosniff\n1 < date: Sat, 08 Apr 2023 19:11:09 GMT\n1 < server: envoy\n1 < Via: HTTP\/2 edgeproxy, 1.1 google\n1 < Alt-Svc: h3=\":443\"; ma=2592000,h3-29=\":443\"; ma=2592000\n\n\n"},{"result":{"nanos":10806900,"errorMessage":"status code was: 404, expected: 400, response time in milliseconds: 335, url: https:\/\/api.spotify.com\/v1\/browse\/Scategories?country+%3D+%22SE%22+%2C+locale=sv_SE&offset=5&limit=10, response: \n\nsrc\/test\/resources\/featureCategories\/GetSeveralBrowseCategories.feature:20","millis":10.8069,"status":"failed"},"step":{"line":20,"prefix":"Then","index":4,"text":"status 400"},"stepLog":"19:12:48.436 src\/test\/resources\/featureCategories\/GetSeveralBrowseCategories.feature:20\nThen status 400\nstatus code was: 404, expected: 400, response time in milliseconds: 335, url: https:\/\/api.spotify.com\/v1\/browse\/Scategories?country+%3D+%22SE%22+%2C+locale=sv_SE&offset=5&limit=10, response: \n\nsrc\/test\/resources\/featureCategories\/GetSeveralBrowseCategories.feature:20\n"}],"line":15,"description":"","durationMillis":768.7953,"failed":true,"error":"status code was: 404, expected: 400, response time in milliseconds: 335, url: https:\/\/api.spotify.com\/v1\/browse\/Scategories?country+%3D+%22SE%22+%2C+locale=sv_SE&offset=5&limit=10, response: \n\nsrc\/test\/resources\/featureCategories\/GetSeveralBrowseCategories.feature:20","executorName":"main","name":"verify if the API returns an error if i send an invalid id","startTime":1680981167651,"refId":"[2:15]","endTime":1680981168436,"exampleIndex":-1}],"callDepth":0,"name":"Get Several Browse Categories","description":"","resultDate":"2023-04-08 07:12:48 PM","durationMillis":2808.8607,"passedCount":1}