{"failedCount":0,"prefixedPath":"src\/test\/resources\/featureCategories\/GetSeveralBrowseCategories.feature","packageQualifiedName":"src.test.resources.featureCategories.GetSeveralBrowseCategories","loopIndex":-1,"relativePath":"src\/test\/resources\/featureCategories\/GetSeveralBrowseCategories.feature","scenarioResults":[{"sectionIndex":0,"stepResults":[{"result":{"nanos":1065834600,"millis":1065.8346,"status":"passed"},"step":{"background":true,"line":4,"prefix":"And","index":0,"text":"def authorization_access = call read('classpath:Authorization\/BearerToken.feature')"},"callResults":[{"failedCount":0,"prefixedPath":"classpath:Authorization\/BearerToken.feature","packageQualifiedName":"Authorization.BearerToken","loopIndex":-1,"relativePath":"Authorization\/BearerToken.feature","scenarioResults":[{"sectionIndex":0,"stepResults":[{"result":{"nanos":572600,"millis":0.5726,"status":"passed"},"step":{"line":5,"prefix":"Given","index":0,"text":"url \"https:\/\/accounts.spotify.com\/api\/token\""}},{"result":{"nanos":7132600,"millis":7.1326,"status":"passed"},"step":{"line":6,"prefix":"And","index":1,"text":"def Base64 = Java.type('Utils.Base64Encode')"}},{"result":{"nanos":1207900,"millis":1.2079,"status":"passed"},"step":{"line":7,"prefix":"And","index":2,"text":"def auth_string = client_authorization"}},{"result":{"nanos":6474400,"millis":6.4744,"status":"passed"},"step":{"line":8,"prefix":"And","index":3,"text":"def encoded_string = Base64.encode(auth_string)"}},{"result":{"nanos":8901900,"millis":8.9019,"status":"passed"},"step":{"line":9,"prefix":"And","index":4,"text":"header Authorization = \"Basic \" + encoded_string"}},{"result":{"nanos":98877900,"millis":98.8779,"status":"passed"},"step":{"line":10,"prefix":"And","index":5,"text":"form field grant_type = \"client_credentials\""}},{"result":{"nanos":870795100,"millis":870.7951,"status":"passed"},"step":{"line":11,"prefix":"When","index":6,"text":"method POST"},"stepLog":"04:31:54.163 request:\n1 > POST https:\/\/accounts.spotify.com\/api\/token\n1 > Authorization: Basic MzQ3NTdhOWZkOTIzNDM2OWIwOThkZGVkZTViMDQwMmM6YWViZDMyMDkyOTVlNGQxNThiN2I2M2M1ODljNGU5Mjc=\n1 > Content-Type: application\/x-www-form-urlencoded\n1 > Content-Length: 29\n1 > Host: accounts.spotify.com\n1 > Connection: Keep-Alive\n1 > User-Agent: Apache-HttpClient\/4.5.14 (Java\/11.0.14)\n1 > Accept-Encoding: gzip,deflate\ngrant_type=client_credentials\n\n04:31:54.633 response time in milliseconds: 461\n1 < 200\n1 < date: Sun, 09 Apr 2023 04:30:16 GMT\n1 < content-type: application\/json\n1 < set-cookie: __Host-device_id=AQD76sb5fx0Lh1eTrh7V0tBUJX_2oejKrNcWTX7ca4AZRlMv95dS_QzbPlc6iLAg6mkhh6mF4rY8Q3QniN4AyU3mbcFBrMrH9SY;Version=1;Path=\/;Max-Age=2147483647;Secure;HttpOnly;SameSite=Lax\n1 < set-cookie: sp_tr=false;Version=1;Domain=accounts.spotify.com;Path=\/;Secure;SameSite=Lax\n1 < sp-trace-id: 63dcea1e51e87d14\n1 < x-envoy-upstream-service-time: 8\n1 < server: envoy\n1 < strict-transport-security: max-age=31536000\n1 < x-content-type-options: nosniff\n1 < vary: Accept-Encoding\n1 < Via: HTTP\/2 edgeproxy, 1.1 google\n1 < Alt-Svc: h3=\":443\"; ma=2592000,h3-29=\":443\"; ma=2592000\n1 < Transfer-Encoding: chunked\n1 < Set-Cookie: __Host-device_id=AQD76sb5fx0Lh1eTrh7V0tBUJX_2oejKrNcWTX7ca4AZRlMv95dS_QzbPlc6iLAg6mkhh6mF4rY8Q3QniN4AyU3mbcFBrMrH9SY;Version=1;Path=\/;Max-Age=2147483647;Secure;HttpOnly;SameSite=Lax\n1 < Set-Cookie: sp_tr=false;Version=1;Domain=accounts.spotify.com;Path=\/;Secure;SameSite=Lax\n{\"access_token\":\"BQC6_BfehSMIhuKtM1T8kb5aUdyu42VcOOVZfJOjiCBPLPubLslFEsTA3cdGyjd-2Emd8xbb--taDZGm63Z424sw4ZVXPPa6Ob9saf7y-eaSZS1xgDN0\",\"token_type\":\"Bearer\",\"expires_in\":3600}\n\n"},{"result":{"nanos":23900,"millis":0.0239,"status":"passed"},"step":{"line":12,"prefix":"Then","index":7,"text":"status 200"}},{"result":{"nanos":4481300,"millis":4.4813,"status":"passed"},"step":{"line":13,"prefix":"And","index":8,"text":"def bearer_token = response.access_token"}}],"executorName":"main","line":3,"name":"get authorization","description":"","durationMillis":998.4676,"startTime":1681014713639,"failed":false,"refId":"[1:3]","endTime":1681014714644,"exampleIndex":-1}],"callDepth":1,"name":"Get the bearer token","description":"","resultDate":"2023-04-09 04:31:55 AM","durationMillis":998.4676,"passedCount":1}]},{"result":{"nanos":760000,"millis":0.76,"status":"passed"},"step":{"line":8,"prefix":"Given","index":0,"text":"url \"https:\/\/api.spotify.com\/v1\/browse\/categories\""}},{"result":{"nanos":821000,"millis":0.821,"status":"passed"},"step":{"line":9,"prefix":"And","index":1,"text":"header Authorization = 'Bearer ' + authorization_access .bearer_token"}},{"result":{"nanos":14971600,"millis":14.9716,"status":"passed"},"step":{"line":10,"prefix":"And","index":2,"text":"params { country = \"SE\" , locale : \"sv_SE\" , limit : 10 , offset : 5  }"}},{"result":{"nanos":391604900,"millis":391.6049,"status":"passed"},"step":{"line":11,"prefix":"When","index":3,"text":"method GET"},"stepLog":"04:31:54.666 request:\n1 > GET https:\/\/api.spotify.com\/v1\/browse\/categories?country+%3D+%22SE%22+%2C+locale=sv_SE&offset=5&limit=10\n1 > Authorization: Bearer BQC6_BfehSMIhuKtM1T8kb5aUdyu42VcOOVZfJOjiCBPLPubLslFEsTA3cdGyjd-2Emd8xbb--taDZGm63Z424sw4ZVXPPa6Ob9saf7y-eaSZS1xgDN0\n1 > Host: api.spotify.com\n1 > Connection: Keep-Alive\n1 > User-Agent: Apache-HttpClient\/4.5.14 (Java\/11.0.14)\n1 > Accept-Encoding: gzip,deflate\n\n\n04:31:55.050 response time in milliseconds: 381\n1 < 200\n1 < content-type: application\/json; charset=utf-8\n1 < cache-control: public, max-age=600\n1 < x-robots-tag: noindex, nofollow\n1 < access-control-allow-origin: *\n1 < access-control-allow-headers: Accept, App-Platform, Authorization, Content-Type, Origin, Retry-After, Spotify-App-Version, X-Cloud-Trace-Context, client-token, content-access-token\n1 < access-control-allow-methods: GET, POST, OPTIONS, PUT, DELETE, PATCH\n1 < access-control-allow-credentials: true\n1 < access-control-max-age: 604800\n1 < strict-transport-security: max-age=31536000\n1 < x-content-type-options: nosniff\n1 < date: Sun, 09 Apr 2023 04:30:17 GMT\n1 < server: envoy\n1 < Via: HTTP\/2 edgeproxy, 1.1 google\n1 < Alt-Svc: h3=\":443\"; ma=2592000,h3-29=\":443\"; ma=2592000\n1 < Transfer-Encoding: chunked\n{\n  \"categories\" : {\n    \"href\" : \"https:\/\/api.spotify.com\/v1\/browse\/categories?country=MA&offset=5&limit=10\",\n    \"items\" : [ {\n      \"href\" : \"https:\/\/api.spotify.com\/v1\/browse\/categories\/0JQ5DAqbMKFNQ0fGp4byGU\",\n      \"icons\" : [ {\n        \"height\" : null,\n        \"url\" : \"https:\/\/t.scdn.co\/images\/b505b01bbe0e490cbe43b07f16212892.jpeg\",\n        \"width\" : null\n      } ],\n      \"id\" : \"0JQ5DAqbMKFNQ0fGp4byGU\",\n      \"name\" : \"Afro\"\n    }, {\n      \"href\" : \"https:\/\/api.spotify.com\/v1\/browse\/categories\/0JQ5DAqbMKFzHmL4tf05da\",\n      \"icons\" : [ {\n        \"height\" : 274,\n        \"url\" : \"https:\/\/t.scdn.co\/media\/original\/mood-274x274_976986a31ac8c49794cbdc7246fd5ad7_274x274.jpg\",\n        \"width\" : 274\n      } ],\n      \"id\" : \"0JQ5DAqbMKFzHmL4tf05da\",\n      \"name\" : \"Mood\"\n    }, {\n      \"href\" : \"https:\/\/api.spotify.com\/v1\/browse\/categories\/0JQ5DAqbMKFHaib8N0cwey\",\n      \"icons\" : [ {\n        \"height\" : null,\n        \"url\" : \"https:\/\/t.scdn.co\/images\/3a65e06ed84743b29df8c5d9102dd827.jpeg\",\n        \"width\" : null\n      } ],\n      \"id\" : \"0JQ5DAqbMKFHaib8N0cwey\",\n      \"name\" : \"Khaleeji\"\n    }, {\n      \"href\" : \"https:\/\/api.spotify.com\/v1\/browse\/categories\/0JQ5DAqbMKFLVaM30PMBm4\",\n      \"icons\" : [ {\n        \"height\" : null,\n        \"url\" : \"https:\/\/t.scdn.co\/images\/8e508d7eb5b843a89c368c9507ecc429.jpeg\",\n        \"width\" : null\n      } ],\n      \"id\" : \"0JQ5DAqbMKFLVaM30PMBm4\",\n      \"name\" : \"Summer\"\n    }, {\n      \"href\" : \"https:\/\/api.spotify.com\/v1\/browse\/categories\/0JQ5DAqbMKFxXaXKP7zcDp\",\n      \"icons\" : [ {\n        \"height\" : null,\n        \"url\" : \"https:\/\/t.scdn.co\/images\/26a60378-a374-4cd7-b894-28efa5e154cb.jpg\",\n        \"width\" : null\n      } ],\n      \"id\" : \"0JQ5DAqbMKFxXaXKP7zcDp\",\n      \"name\" : \"Latin\"\n    }, {\n      \"href\" : \"https:\/\/api.spotify.com\/v1\/browse\/categories\/0JQ5DAqbMKFGvOw3O4nLAf\",\n      \"icons\" : [ {\n        \"height\" : null,\n        \"url\" : \"https:\/\/t.scdn.co\/images\/2078afd91e4d431eb19efc5bee5ab131.jpeg\",\n        \"width\" : null\n      } ],\n      \"id\" : \"0JQ5DAqbMKFGvOw3O4nLAf\",\n      \"name\" : \"K-Pop\"\n    }, {\n      \"href\" : \"https:\/\/api.spotify.com\/v1\/browse\/categories\/0JQ5DAqbMKFObNLOHydSW8\",\n      \"icons\" : [ {\n        \"height\" : null,\n        \"url\" : \"https:\/\/t.scdn.co\/images\/495fadcefe234607b14b2db3381f3f5d.jpeg\",\n        \"width\" : null\n      } ],\n      \"id\" : \"0JQ5DAqbMKFObNLOHydSW8\",\n      \"name\" : \"Caribbean\"\n    }, {\n      \"href\" : \"https:\/\/api.spotify.com\/v1\/browse\/categories\/0JQ5DAqbMKFCfObibaOZbv\",\n      \"icons\" : [ {\n        \"height\" : null,\n        \"url\" : \"https:\/\/t.scdn.co\/images\/0d39395309ba47838ef12ce987f19d16.jpeg\",\n        \"width\" : null\n      } ],\n      \"id\" : \"0JQ5DAqbMKFCfObibaOZbv\",\n      \"name\" : \"Gaming\"\n    }, {\n      \"href\" : \"https:\/\/api.spotify.com\/v1\/browse\/categories\/0JQ5DAqbMKFRKBHIxJ5hMm\",\n      \"icons\" : [ {\n        \"height\" : null,\n        \"url\" : \"https:\/\/t.scdn.co\/images\/b4182906bf244b4994805084c057e9ee.jpeg\",\n        \"width\" : null\n      } ],\n      \"id\" : \"0JQ5DAqbMKFRKBHIxJ5hMm\",\n      \"name\" : \"Tastemakers\"\n    }, {\n      \"href\" : \"https:\/\/api.spotify.com\/v1\/browse\/categories\/0JQ5DAqbMKFLb2EqgLtpjC\",\n      \"icons\" : [ {\n        \"height\" : null,\n        \"url\" : \"https:\/\/t.scdn.co\/images\/3710b68657574bc79df14bd74629e5ac\",\n        \"width\" : null\n      } ],\n      \"id\" : \"0JQ5DAqbMKFLb2EqgLtpjC\",\n      \"name\" : \"Wellness\"\n    } ],\n    \"limit\" : 10,\n    \"next\" : \"https:\/\/api.spotify.com\/v1\/browse\/categories?country=MA&offset=15&limit=10\",\n    \"offset\" : 5,\n    \"previous\" : \"https:\/\/api.spotify.com\/v1\/browse\/categories?country=MA&offset=0&limit=10\",\n    \"total\" : 43\n  }\n}\n\n"},{"result":{"nanos":31400,"millis":0.0314,"status":"passed"},"step":{"line":12,"prefix":"Then","index":4,"text":"status 200"}},{"result":{"nanos":22260800,"millis":22.2608,"status":"passed"},"step":{"line":13,"prefix":"And","index":5,"text":"print response"},"stepLog":"04:31:55.078 [print] {\n  \"categories\": {\n    \"href\": \"https:\/\/api.spotify.com\/v1\/browse\/categories?country=MA&offset=5&limit=10\",\n    \"items\": [\n      {\n        \"href\": \"https:\/\/api.spotify.com\/v1\/browse\/categories\/0JQ5DAqbMKFNQ0fGp4byGU\",\n        \"icons\": [\n          {\n            \"height\": null,\n            \"url\": \"https:\/\/t.scdn.co\/images\/b505b01bbe0e490cbe43b07f16212892.jpeg\",\n            \"width\": null\n          }\n        ],\n        \"id\": \"0JQ5DAqbMKFNQ0fGp4byGU\",\n        \"name\": \"Afro\"\n      },\n      {\n        \"href\": \"https:\/\/api.spotify.com\/v1\/browse\/categories\/0JQ5DAqbMKFzHmL4tf05da\",\n        \"icons\": [\n          {\n            \"height\": 274,\n            \"url\": \"https:\/\/t.scdn.co\/media\/original\/mood-274x274_976986a31ac8c49794cbdc7246fd5ad7_274x274.jpg\",\n            \"width\": 274\n          }\n        ],\n        \"id\": \"0JQ5DAqbMKFzHmL4tf05da\",\n        \"name\": \"Mood\"\n      },\n      {\n        \"href\": \"https:\/\/api.spotify.com\/v1\/browse\/categories\/0JQ5DAqbMKFHaib8N0cwey\",\n        \"icons\": [\n          {\n            \"height\": null,\n            \"url\": \"https:\/\/t.scdn.co\/images\/3a65e06ed84743b29df8c5d9102dd827.jpeg\",\n            \"width\": null\n          }\n        ],\n        \"id\": \"0JQ5DAqbMKFHaib8N0cwey\",\n        \"name\": \"Khaleeji\"\n      },\n      {\n        \"href\": \"https:\/\/api.spotify.com\/v1\/browse\/categories\/0JQ5DAqbMKFLVaM30PMBm4\",\n        \"icons\": [\n          {\n            \"height\": null,\n            \"url\": \"https:\/\/t.scdn.co\/images\/8e508d7eb5b843a89c368c9507ecc429.jpeg\",\n            \"width\": null\n          }\n        ],\n        \"id\": \"0JQ5DAqbMKFLVaM30PMBm4\",\n        \"name\": \"Summer\"\n      },\n      {\n        \"href\": \"https:\/\/api.spotify.com\/v1\/browse\/categories\/0JQ5DAqbMKFxXaXKP7zcDp\",\n        \"icons\": [\n          {\n            \"height\": null,\n            \"url\": \"https:\/\/t.scdn.co\/images\/26a60378-a374-4cd7-b894-28efa5e154cb.jpg\",\n            \"width\": null\n          }\n        ],\n        \"id\": \"0JQ5DAqbMKFxXaXKP7zcDp\",\n        \"name\": \"Latin\"\n      },\n      {\n        \"href\": \"https:\/\/api.spotify.com\/v1\/browse\/categories\/0JQ5DAqbMKFGvOw3O4nLAf\",\n        \"icons\": [\n          {\n            \"height\": null,\n            \"url\": \"https:\/\/t.scdn.co\/images\/2078afd91e4d431eb19efc5bee5ab131.jpeg\",\n            \"width\": null\n          }\n        ],\n        \"id\": \"0JQ5DAqbMKFGvOw3O4nLAf\",\n        \"name\": \"K-Pop\"\n      },\n      {\n        \"href\": \"https:\/\/api.spotify.com\/v1\/browse\/categories\/0JQ5DAqbMKFObNLOHydSW8\",\n        \"icons\": [\n          {\n            \"height\": null,\n            \"url\": \"https:\/\/t.scdn.co\/images\/495fadcefe234607b14b2db3381f3f5d.jpeg\",\n            \"width\": null\n          }\n        ],\n        \"id\": \"0JQ5DAqbMKFObNLOHydSW8\",\n        \"name\": \"Caribbean\"\n      },\n      {\n        \"href\": \"https:\/\/api.spotify.com\/v1\/browse\/categories\/0JQ5DAqbMKFCfObibaOZbv\",\n        \"icons\": [\n          {\n            \"height\": null,\n            \"url\": \"https:\/\/t.scdn.co\/images\/0d39395309ba47838ef12ce987f19d16.jpeg\",\n            \"width\": null\n          }\n        ],\n        \"id\": \"0JQ5DAqbMKFCfObibaOZbv\",\n        \"name\": \"Gaming\"\n      },\n      {\n        \"href\": \"https:\/\/api.spotify.com\/v1\/browse\/categories\/0JQ5DAqbMKFRKBHIxJ5hMm\",\n        \"icons\": [\n          {\n            \"height\": null,\n            \"url\": \"https:\/\/t.scdn.co\/images\/b4182906bf244b4994805084c057e9ee.jpeg\",\n            \"width\": null\n          }\n        ],\n        \"id\": \"0JQ5DAqbMKFRKBHIxJ5hMm\",\n        \"name\": \"Tastemakers\"\n      },\n      {\n        \"href\": \"https:\/\/api.spotify.com\/v1\/browse\/categories\/0JQ5DAqbMKFLb2EqgLtpjC\",\n        \"icons\": [\n          {\n            \"height\": null,\n            \"url\": \"https:\/\/t.scdn.co\/images\/3710b68657574bc79df14bd74629e5ac\",\n            \"width\": null\n          }\n        ],\n        \"id\": \"0JQ5DAqbMKFLb2EqgLtpjC\",\n        \"name\": \"Wellness\"\n      }\n    ],\n    \"limit\": 10,\n    \"next\": \"https:\/\/api.spotify.com\/v1\/browse\/categories?country=MA&offset=15&limit=10\",\n    \"offset\": 5,\n    \"previous\": \"https:\/\/api.spotify.com\/v1\/browse\/categories?country=MA&offset=0&limit=10\",\n    \"total\": 43\n  }\n}\n \n"}],"executorName":"main","line":6,"name":"Get Several Browse Categories","description":"","durationMillis":1496.2843,"startTime":1681014713458,"failed":false,"refId":"[1:6]","endTime":1681014715078,"exampleIndex":-1},{"sectionIndex":1,"stepResults":[{"result":{"nanos":388579300,"millis":388.5793,"status":"passed"},"step":{"background":true,"line":4,"prefix":"And","index":0,"text":"def authorization_access = call read('classpath:Authorization\/BearerToken.feature')"},"callResults":[{"failedCount":0,"prefixedPath":"classpath:Authorization\/BearerToken.feature","packageQualifiedName":"Authorization.BearerToken","loopIndex":-1,"relativePath":"Authorization\/BearerToken.feature","scenarioResults":[{"sectionIndex":0,"stepResults":[{"result":{"nanos":255600,"millis":0.2556,"status":"passed"},"step":{"line":5,"prefix":"Given","index":0,"text":"url \"https:\/\/accounts.spotify.com\/api\/token\""}},{"result":{"nanos":345300,"millis":0.3453,"status":"passed"},"step":{"line":6,"prefix":"And","index":1,"text":"def Base64 = Java.type('Utils.Base64Encode')"}},{"result":{"nanos":183200,"millis":0.1832,"status":"passed"},"step":{"line":7,"prefix":"And","index":2,"text":"def auth_string = client_authorization"}},{"result":{"nanos":310000,"millis":0.31,"status":"passed"},"step":{"line":8,"prefix":"And","index":3,"text":"def encoded_string = Base64.encode(auth_string)"}},{"result":{"nanos":236900,"millis":0.2369,"status":"passed"},"step":{"line":9,"prefix":"And","index":4,"text":"header Authorization = \"Basic \" + encoded_string"}},{"result":{"nanos":298500,"millis":0.2985,"status":"passed"},"step":{"line":10,"prefix":"And","index":5,"text":"form field grant_type = \"client_credentials\""}},{"result":{"nanos":377031200,"millis":377.0312,"status":"passed"},"step":{"line":11,"prefix":"When","index":6,"text":"method POST"},"stepLog":"04:31:55.099 request:\n1 > POST https:\/\/accounts.spotify.com\/api\/token\n1 > Authorization: Basic MzQ3NTdhOWZkOTIzNDM2OWIwOThkZGVkZTViMDQwMmM6YWViZDMyMDkyOTVlNGQxNThiN2I2M2M1ODljNGU5Mjc=\n1 > Content-Type: application\/x-www-form-urlencoded\n1 > Content-Length: 29\n1 > Host: accounts.spotify.com\n1 > Connection: Keep-Alive\n1 > User-Agent: Apache-HttpClient\/4.5.14 (Java\/11.0.14)\n1 > Accept-Encoding: gzip,deflate\ngrant_type=client_credentials\n\n04:31:55.472 response time in milliseconds: 370\n1 < 200\n1 < date: Sun, 09 Apr 2023 04:30:17 GMT\n1 < content-type: application\/json\n1 < set-cookie: __Host-device_id=AQC2tohF2gEgS0j0g9gkFZAO4lELM3avKhWnfavzP7iZ_aHS0RMcxESllu_bIloupipsqgHcMKeD-Pulpu0xrM35Zx5133rM_cw;Version=1;Path=\/;Max-Age=2147483647;Secure;HttpOnly;SameSite=Lax\n1 < set-cookie: sp_tr=false;Version=1;Domain=accounts.spotify.com;Path=\/;Secure;SameSite=Lax\n1 < sp-trace-id: 8c1addfe6153c699\n1 < x-envoy-upstream-service-time: 9\n1 < server: envoy\n1 < strict-transport-security: max-age=31536000\n1 < x-content-type-options: nosniff\n1 < vary: Accept-Encoding\n1 < Via: HTTP\/2 edgeproxy, 1.1 google\n1 < Alt-Svc: h3=\":443\"; ma=2592000,h3-29=\":443\"; ma=2592000\n1 < Transfer-Encoding: chunked\n1 < Set-Cookie: __Host-device_id=AQC2tohF2gEgS0j0g9gkFZAO4lELM3avKhWnfavzP7iZ_aHS0RMcxESllu_bIloupipsqgHcMKeD-Pulpu0xrM35Zx5133rM_cw;Version=1;Path=\/;Max-Age=2147483647;Secure;HttpOnly;SameSite=Lax\n1 < Set-Cookie: sp_tr=false;Version=1;Domain=accounts.spotify.com;Path=\/;Secure;SameSite=Lax\n{\"access_token\":\"BQAHxEDxynPp4_Co8ZfIjvJpuM1tjeq-_rHwv0C73WAtmsmTW8greO_lmKDSsM9qtEiObZa1vge-JvoEYNTX5LUc4GMthTeZUqv6FNAyQU040BhsGjio\",\"token_type\":\"Bearer\",\"expires_in\":3600}\n\n"},{"result":{"nanos":23700,"millis":0.0237,"status":"passed"},"step":{"line":12,"prefix":"Then","index":7,"text":"status 200"}},{"result":{"nanos":978100,"millis":0.9781,"status":"passed"},"step":{"line":13,"prefix":"And","index":8,"text":"def bearer_token = response.access_token"}}],"executorName":"main","line":3,"name":"get authorization","description":"","durationMillis":379.6625,"startTime":1681014715095,"failed":false,"refId":"[1:3]","endTime":1681014715476,"exampleIndex":-1}],"callDepth":1,"name":"Get the bearer token","description":"","resultDate":"2023-04-09 04:31:55 AM","durationMillis":379.6625,"passedCount":1}]},{"result":{"nanos":449800,"millis":0.4498,"status":"passed"},"step":{"line":16,"prefix":"Given","index":0,"text":"url \"https:\/\/api.spotify.com\/v1\/browse\/categories\""}},{"result":{"nanos":903100,"millis":0.9031,"status":"passed"},"step":{"line":17,"prefix":"And","index":1,"text":"header Authorization = 'Bearer ' + authorization_access .bearer_token"}},{"result":{"nanos":658400,"millis":0.6584,"status":"passed"},"step":{"line":18,"prefix":"And","index":2,"text":"params { country : \"SEEE\" , locale : \"sv_SE\" , limit : 10 , offset : 5  }"}},{"result":{"nanos":338670200,"millis":338.6702,"status":"passed"},"step":{"line":19,"prefix":"When","index":3,"text":"method GET"},"stepLog":"04:31:55.484 request:\n1 > GET https:\/\/api.spotify.com\/v1\/browse\/categories?country=SEEE&offset=5&limit=10&locale=sv_SE\n1 > Authorization: Bearer BQAHxEDxynPp4_Co8ZfIjvJpuM1tjeq-_rHwv0C73WAtmsmTW8greO_lmKDSsM9qtEiObZa1vge-JvoEYNTX5LUc4GMthTeZUqv6FNAyQU040BhsGjio\n1 > Host: api.spotify.com\n1 > Connection: Keep-Alive\n1 > User-Agent: Apache-HttpClient\/4.5.14 (Java\/11.0.14)\n1 > Accept-Encoding: gzip,deflate\n\n\n04:31:55.817 response time in milliseconds: 333\n1 < 400\n1 < content-type: application\/json; charset=utf-8\n1 < cache-control: private, max-age=0\n1 < x-robots-tag: noindex, nofollow\n1 < access-control-allow-origin: *\n1 < access-control-allow-headers: Accept, App-Platform, Authorization, Content-Type, Origin, Retry-After, Spotify-App-Version, X-Cloud-Trace-Context, client-token, content-access-token\n1 < access-control-allow-methods: GET, POST, OPTIONS, PUT, DELETE, PATCH\n1 < access-control-allow-credentials: true\n1 < access-control-max-age: 604800\n1 < strict-transport-security: max-age=31536000\n1 < x-content-type-options: nosniff\n1 < date: Sun, 09 Apr 2023 04:30:18 GMT\n1 < server: envoy\n1 < Via: HTTP\/2 edgeproxy, 1.1 google\n1 < Alt-Svc: h3=\":443\"; ma=2592000,h3-29=\":443\"; ma=2592000\n1 < Transfer-Encoding: chunked\n{\n  \"error\" : {\n    \"status\" : 400,\n    \"message\" : \"Invalid country code\"\n  }\n}\n\n"},{"result":{"nanos":8600,"millis":0.0086,"status":"passed"},"step":{"line":20,"prefix":"Then","index":4,"text":"status 400"}}],"executorName":"main","line":15,"name":"verify if the API returns an error if i send an invalid id","description":"","durationMillis":729.2694,"startTime":1681014715086,"failed":false,"refId":"[2:15]","endTime":1681014715818,"exampleIndex":-1}],"callDepth":0,"name":"Get Several Browse Categories","description":"","resultDate":"2023-04-09 04:31:55 AM","durationMillis":2225.5537,"passedCount":2}